GR-XX02/GearV2Main/CordDet/OrgData/thickCord-C-17_3MFoilTape.csv

#Digilent WaveForms Oscilloscope Acquisition
#Device Name: Discovery2
#Serial Number: SN:210321A41D55
#Date Time: 2020-05-25 15:15:26.706
#Sample rate: 8000Hz
#Samples: 8192
#Trigger: Source: Channel 1 Type: Edge Condition: Either Level: 500 mV Hyst.: Auto HoldOff: 0 s
#Channel 1: Range: 500 mV/div Offset: -1.5 V
#Power Supplies: ON
#Positive Supply: ON
#Voltage: 3.3 V
#Negative Supply: OFF
#Voltage: -1 V

Time (s),Channel 1 (V)
-0.511966,1.68351
-0.511841,1.68214
-0.511716,1.68043
-0.511591,1.67906
-0.511466,1.67804
-0.511341,1.67633
-0.511216,1.67428
-0.511091,1.67223
-0.510966,1.66983
-0.510841,1.66778
-0.510716,1.66505
-0.510591,1.663
-0.510466,1.66129
-0.510341,1.65924
-0.510216,1.65685
-0.510091,1.65514
-0.509966,1.65309
-0.509841,1.65103
-0.509716,1.64898
-0.509591,1.64693
-0.509466,1.64454
-0.509341,1.64215
-0.509216,1.6401
-0.509091,1.6377
-0.508966,1.63497
-0.508841,1.63224
-0.508716,1.6295
-0.508591,1.62711
-0.508466,1.62437
-0.508341,1.62267
-0.508216,1.62027
-0.508091,1.61788
-0.507966,1.61549
-0.507841,1.61309
-0.507716,1.61036
-0.507591,1.60831
-0.507466,1.6066
-0.507341,1.60558
-0.507216,1.60387
-0.507091,1.60147
-0.506966,1.59908
-0.506841,1.59669
-0.506716,1.5943
-0.506591,1.59225
-0.506466,1.58985
-0.506341,1.58814
-0.506216,1.58609
-0.506091,1.58233
-0.505966,1.57891
-0.505841,1.57584
-0.505716,1.5731
-0.505591,1.57105
-0.505466,1.569
-0.505341,1.56695
-0.505216,1.56456
-0.505091,1.56251
-0.504966,1.56114
-0.504841,1.55943
-0.504716,1.55772
-0.504591,1.55499
-0.504466,1.55123
-0.504341,1.54884
-0.504216,1.54576
-0.504091,1.54303
-0.503966,1.54098
-0.503841,1.53892
-0.503716,1.53687
-0.503591,1.53448
-0.503466,1.53277
-0.503341,1.53038
-0.503216,1.52901
-0.503091,1.5273
-0.502966,1.52525
-0.502841,1.5232
-0.502716,1.52149
-0.502591,1.51944
-0.502466,1.51739
-0.502341,1.51534
-0.502216,1.51329
-0.502091,1.51124
-0.501966,1.51021
-0.501841,1.5085
-0.501716,1.50645
-0.501591,1.50474
-0.501466,1.50269
-0.501341,1.50098
-0.501216,1.49928
-0.501091,1.4962
-0.500966,1.49381
-0.500841,1.49107
-0.500716,1.48902
-0.500591,1.48629
-0.500466,1.48389
-0.500341,1.48116
-0.500216,1.47911
-0.500091,1.47706
-0.499966,1.47501
-0.499841,1.47296
-0.499716,1.47022
-0.499591,1.46817
-0.499466,1.46544
-0.499341,1.46407
-0.499216,1.4627
-0.499091,1.46236
-0.498966,1.46168
-0.498841,1.46031
-0.498716,1.4586
-0.498591,1.45689
-0.498466,1.45518
-0.498341,1.45313
-0.498216,1.45177
-0.498091,1.45006
-0.497966,1.44937
-0.497841,1.44766
-0.497716,1.44425
-0.497591,1.44083
-0.497466,1.43912
-0.497341,1.43741
-0.497216,1.43604
-0.497091,1.43468
-0.496966,1.43331
-0.496841,1.43262
-0.496716,1.43126
-0.496591,1.42989
-0.496466,1.42852
-0.496341,1.4275
-0.496216,1.42613
-0.496091,1.4251
-0.495966,1.42408
-0.495841,1.42237
-0.495716,1.42066
-0.495591,1.41929
-0.495466,1.41793
-0.495341,1.41759
-0.495216,1.41656
-0.495091,1.41553
-0.494966,1.41417
-0.494841,1.41314
-0.494716,1.41246
-0.494591,1.41246
-0.494466,1.41177
-0.494341,1.41041
-0.494216,1.40904
-0.494091,1.40801
-0.493966,1.40699
-0.493841,1.40562
-0.493716,1.4046
-0.493591,1.40426
-0.493466,1.40357
-0.493341,1.40289
-0.493216,1.40186
-0.493091,1.40186
-0.492966,1.40118
-0.492841,1.4005
-0.492716,1.39981
-0.492591,1.39913
-0.492466,1.3981
-0.492341,1.39742
-0.492216,1.39674
-0.492091,1.39605
-0.491966,1.39571
-0.491841,1.39571
-0.491716,1.39605
-0.491591,1.39571
-0.491466,1.39605
-0.491341,1.39571
-0.491216,1.39571
-0.491091,1.39571
-0.490966,1.39503
-0.490841,1.39503
-0.490716,1.39674
-0.490591,1.39742
-0.490466,1.39776
-0.490341,1.39776
-0.490216,1.39776
-0.490091,1.39776
-0.489966,1.39742
-0.489841,1.3981
-0.489716,1.39879
-0.489591,1.39913
-0.489466,1.39879
-0.489341,1.39708
-0.489216,1.39605
-0.489091,1.39537
-0.488966,1.39537
-0.488841,1.39605
-0.488716,1.39639
-0.488591,1.39571
-0.488466,1.39605
-0.488341,1.39639
-0.488216,1.39708
-0.488091,1.39708
-0.487966,1.39674
-0.487841,1.39776
-0.487716,1.39776
-0.487591,1.39742
-0.487466,1.39639
-0.487341,1.39674
-0.487216,1.39674
-0.487091,1.39674
-0.486966,1.39674
-0.486841,1.39708
-0.486716,1.39742
-0.486591,1.39742
-0.486466,1.39776
-0.486341,1.39776
-0.486216,1.39776
-0.486091,1.3981
-0.485966,1.39844
-0.485841,1.3981
-0.485716,1.39844
-0.485591,1.39913
-0.485466,1.39879
-0.485341,1.39981
-0.485216,1.4005
-0.485091,1.40084
-0.484966,1.40152
-0.484841,1.4022
-0.484716,1.40255
-0.484591,1.4022
-0.484466,1.40357
-0.484341,1.40426
-0.484216,1.40426
-0.484091,1.40426
-0.483966,1.40494
-0.483841,1.40528
-0.483716,1.40596
-0.483591,1.40562
-0.483466,1.40596
-0.483341,1.40699
-0.483216,1.40733
-0.483091,1.40767
-0.482966,1.40767
-0.482841,1.40801
-0.482716,1.40904
-0.482591,1.40972
-0.482466,1.41143
-0.482341,1.41417
-0.482216,1.41553
-0.482091,1.41656
-0.481966,1.41759
-0.481841,1.41827
-0.481716,1.41929
-0.481591,1.42032
-0.481466,1.421
-0.481341,1.42203
-0.481216,1.42271
-0.481091,1.4234
-0.480966,1.4234
-0.480841,1.42374
-0.480716,1.42374
-0.480591,1.42476
-0.480466,1.42579
-0.480341,1.42681
-0.480216,1.4275
-0.480091,1.42852
-0.479966,1.42989
-0.479841,1.43092
-0.479716,1.43228
-0.479591,1.43297
-0.479466,1.43399
-0.479341,1.43536
-0.479216,1.43604
-0.479091,1.43707
-0.478966,1.43741
-0.478841,1.43844
-0.478716,1.43946
-0.478591,1.44014
-0.478466,1.44117
-0.478341,1.44254
-0.478216,1.4439
-0.478091,1.44595
-0.477966,1.44698
-0.477841,1.44732
-0.477716,1.44903
-0.477591,1.4504
-0.477466,1.45006
-0.477341,1.45006
-0.477216,1.45074
-0.477091,1.45211
-0.476966,1.45347
-0.476841,1.4545
-0.476716,1.45518
-0.476591,1.45655
-0.476466,1.45758
-0.476341,1.4586
-0.476216,1.45997
-0.476091,1.46134
-0.475966,1.46236
-0.475841,1.46339
-0.475716,1.46339
-0.475591,1.46441
-0.475466,1.46544
-0.475341,1.46646
-0.475216,1.46817
-0.475091,1.4692
-0.474966,1.47056
-0.474841,1.47159
-0.474716,1.47262
-0.474591,1.47364
-0.474466,1.47432
-0.474341,1.47569
-0.474216,1.47808
-0.474091,1.47945
-0.473966,1.4815
-0.473841,1.48253
-0.473716,1.48321
-0.473591,1.48389
-0.473466,1.48492
-0.473341,1.4856
-0.473216,1.48663
-0.473091,1.48697
-0.472966,1.48731
-0.472841,1.48731
-0.472716,1.48629
-0.472591,1.48629
-0.472466,1.48629
-0.472341,1.48629
-0.472216,1.48663
-0.472091,1.48765
-0.471966,1.488
-0.471841,1.48902
-0.471716,1.48971
-0.471591,1.49039
-0.471466,1.4921
-0.471341,1.49278
-0.471216,1.49278
-0.471091,1.49346
-0.470966,1.49449
-0.470841,1.49552
-0.470716,1.4962
-0.470591,1.49688
-0.470466,1.49757
-0.470341,1.49859
-0.470216,1.49962
-0.470091,1.5003
-0.469966,1.50133
-0.469841,1.50304
-0.469716,1.50474
-0.469591,1.50577
-0.469466,1.5068
-0.469341,1.5085
-0.469216,1.51021
-0.469091,1.51192
-0.468966,1.51261
-0.468841,1.51397
-0.468716,1.51602
-0.468591,1.51807
-0.468466,1.52013
-0.468341,1.52183
-0.468216,1.5232
-0.468091,1.52491
-0.467966,1.52696
-0.467841,1.52799
-0.467716,1.5297
-0.467591,1.5314
-0.467466,1.5338
-0.467341,1.53448
-0.467216,1.53482
-0.467091,1.53619
-0.466966,1.53756
-0.466841,1.53927
-0.466716,1.54029
-0.466591,1.54098
-0.466466,1.54234
-0.466341,1.54303
-0.466216,1.54439
-0.466091,1.54576
-0.465966,1.54713
-0.465841,1.54952
-0.465716,1.55225
-0.465591,1.55396
-0.465466,1.55499
-0.465341,1.55567
-0.465216,1.55704
-0.465091,1.55841
-0.464966,1.55943
-0.464841,1.56114
-0.464716,1.56217
-0.464591,1.56353
-0.464466,1.56524
-0.464341,1.5649
-0.464216,1.56524
-0.464091,1.56695
-0.463966,1.56798
-0.463841,1.56832
-0.463716,1.56969
-0.463591,1.57174
-0.463466,1.57345
-0.463341,1.57447
-0.463216,1.57652
-0.463091,1.57857
-0.462966,1.5796
-0.462841,1.58131
-0.462716,1.58336
-0.462591,1.58541
-0.462466,1.58814
-0.462341,1.59054
-0.462216,1.59156
-0.462091,1.59361
-0.461966,1.596
-0.461841,1.5984
-0.461716,1.60011
-0.461591,1.6025
-0.461466,1.60523
-0.461341,1.60797
-0.461216,1.61002
-0.461091,1.61207
-0.460966,1.61344
-0.460841,1.61549
-0.460716,1.61856
-0.460591,1.61959
-0.460466,1.62061
-0.460341,1.62232
-0.460216,1.62506
-0.460091,1.62677
-0.459966,1.62813
-0.459841,1.63018
-0.459716,1.63189
-0.459591,1.63326
-0.459466,1.63497
-0.459341,1.63634
-0.459216,1.6377
-0.459091,1.63941
-0.458966,1.64112
-0.458841,1.64283
-0.458716,1.64386
-0.458591,1.64591
-0.458466,1.64727
-0.458341,1.64864
-0.458216,1.64967
-0.458091,1.65172
-0.457966,1.65343
-0.457841,1.65445
-0.457716,1.65616
-0.457591,1.65787
-0.457466,1.65992
-0.457341,1.66334
-0.457216,1.66471
-0.457091,1.66539
-0.456966,1.66676
-0.456841,1.66812
-0.456716,1.66983
-0.456591,1.6712
-0.456466,1.67257
-0.456341,1.67394
-0.456216,1.67462
-0.456091,1.67496
-0.455966,1.6753
-0.455841,1.67599
-0.455716,1.67701
-0.455591,1.67838
-0.455466,1.67975
-0.455341,1.68111
-0.455216,1.68248
-0.455091,1.68385
-0.454966,1.68487
-0.454841,1.6859
-0.454716,1.68795
-0.454591,1.68897
-0.454466,1.69
-0.454341,1.69103
-0.454216,1.69205
-0.454091,1.69308
-0.453966,1.69479
-0.453841,1.69581
-0.453716,1.69615
-0.453591,1.69718
-0.453466,1.69786
-0.453341,1.69854
-0.453216,1.70025
-0.453091,1.70094
-0.452966,1.70265
-0.452841,1.70367
-0.452716,1.70436
-0.452591,1.70504
-0.452466,1.70572
-0.452341,1.70709
-0.452216,1.70777
-0.452091,1.70846
-0.451966,1.70948
-0.451841,1.71051
-0.451716,1.71153
-0.451591,1.71222
-0.451466,1.7129
-0.451341,1.71358
-0.451216,1.71461
-0.451091,1.71529
-0.450966,1.71632
-0.450841,1.71666
-0.450716,1.71734
-0.450591,1.71837
-0.450466,1.71803
-0.450341,1.71803
-0.450216,1.71769
-0.450091,1.71803
-0.449966,1.71837
-0.449841,1.71837
-0.449716,1.71837
-0.449591,1.71905
-0.449466,1.71871
-0.449341,1.71905
-0.449216,1.71939
-0.449091,1.72145
-0.448966,1.7235
-0.448841,1.7235
-0.448716,1.72315
-0.448591,1.72247
-0.448466,1.72247
-0.448341,1.72315
-0.448216,1.7235
-0.448091,1.72315
-0.447966,1.72384
-0.447841,1.72384
-0.447716,1.72281
-0.447591,1.72076
-0.447466,1.71939
-0.447341,1.71905
-0.447216,1.71905
-0.447091,1.71871
-0.446966,1.71769
-0.446841,1.717
-0.446716,1.717
-0.446591,1.71632
-0.446466,1.71598
-0.446341,1.71529
-0.446216,1.71427
-0.446091,1.71358
-0.445966,1.7129
-0.445841,1.71188
-0.445716,1.71085
-0.445591,1.71085
-0.445466,1.70948
-0.445341,1.70812
-0.445216,1.70709
-0.445091,1.70709
-0.444966,1.70572
-0.444841,1.70436
-0.444716,1.70333
-0.444591,1.70196
-0.444466,1.70128
-0.444341,1.69991
-0.444216,1.69786
-0.444091,1.69615
-0.443966,1.69444
-0.443841,1.69239
-0.443716,1.69068
-0.443591,1.68829
-0.443466,1.68624
-0.443341,1.68487
-0.443216,1.68282
-0.443091,1.68043
-0.442966,1.67804
-0.442841,1.67564
-0.442716,1.67359
-0.442591,1.67086
-0.442466,1.66778
-0.442341,1.66505
-0.442216,1.66266
-0.442091,1.66026
-0.441966,1.65787
-0.441841,1.65514
-0.441716,1.6524
-0.441591,1.65001
-0.441466,1.64762
-0.441341,1.64454
-0.441216,1.64215
-0.441091,1.6401
-0.440966,1.63805
-0.440841,1.636
-0.440716,1.63463
-0.440591,1.63292
-0.440466,1.63087
-0.440341,1.62848
-0.440216,1.62608
-0.440091,1.62369
-0.439966,1.62198
-0.439841,1.61959
-0.439716,1.61685
-0.439591,1.61378
-0.439466,1.61104
-0.439341,1.60763
-0.439216,1.60489
-0.439091,1.60182
-0.438966,1.59908
-0.438841,1.59737
-0.438716,1.59532
-0.438591,1.59361
-0.438466,1.59088
-0.438341,1.58917
-0.438216,1.58746
-0.438091,1.58575
-0.437966,1.58404
-0.437841,1.58233
-0.437716,1.58097
-0.437591,1.57926
-0.437466,1.57823
-0.437341,1.57618
-0.437216,1.57447
-0.437091,1.5731
-0.436966,1.57174
-0.436841,1.57003
-0.436716,1.56798
-0.436591,1.56627
-0.436466,1.56524
-0.436341,1.56388
-0.436216,1.56285
-0.436091,1.56114
-0.435966,1.55943
-0.435841,1.55772
-0.435716,1.55636
-0.435591,1.55499
-0.435466,1.55328
-0.435341,1.55191
-0.435216,1.5502
-0.435091,1.54849
-0.434966,1.54713
-0.434841,1.54508
-0.434716,1.54337
-0.434591,1.54234
-0.434466,1.54098
-0.434341,1.53995
-0.434216,1.53858
-0.434091,1.53687
-0.433966,1.53448
-0.433841,1.53209
-0.433716,1.53038
-0.433591,1.52833
-0.433466,1.52628
-0.433341,1.52423
-0.433216,1.52286
-0.433091,1.52047
-0.432966,1.51876
-0.432841,1.51705
-0.432716,1.515
-0.432591,1.51363
-0.432466,1.51329
-0.432341,1.51329
-0.432216,1.51192
-0.432091,1.51021
-0.431966,1.50885
-0.431841,1.50782
-0.431716,1.50611
-0.431591,1.5044
-0.431466,1.50235
-0.431341,1.50133
-0.431216,1.50064
-0.431091,1.49791
-0.430966,1.49483
-0.430841,1.49244
-0.430716,1.49107
-0.430591,1.48936
-0.430466,1.488
-0.430341,1.48663
-0.430216,1.4856
-0.430091,1.48424
-0.429966,1.48287
-0.429841,1.48219
-0.429716,1.48082
-0.429591,1.48013
-0.429466,1.47877
-0.429341,1.47774
-0.429216,1.47672
-0.429091,1.47535
-0.428966,1.47398
-0.428841,1.47227
-0.428716,1.47125
-0.428591,1.46988
-0.428466,1.46851
-0.428341,1.46749
-0.428216,1.46612
-0.428091,1.4651
-0.427966,1.46373
-0.427841,1.46304
-0.427716,1.46168
-0.427591,1.46031
-0.427466,1.4586
-0.427341,1.45792
-0.427216,1.45621
-0.427091,1.45484
-0.426966,1.45382
-0.426841,1.45245
-0.426716,1.45142
-0.426591,1.44971
-0.426466,1.44801
-0.426341,1.4463
-0.426216,1.44493
-0.426091,1.4439
-0.425966,1.44219
-0.425841,1.44049
-0.425716,1.43912
-0.425591,1.43844
-0.425466,1.43809
-0.425341,1.43707
-0.425216,1.43638
-0.425091,1.43604
-0.424966,1.43502
-0.424841,1.43331
-0.424716,1.43228
-0.424591,1.43126
-0.424466,1.43057
-0.424341,1.43023
-0.424216,1.43057
-0.424091,1.4316
-0.423966,1.43297
-0.423841,1.43262
-0.423716,1.43194
-0.423591,1.43126
-0.423466,1.43092
-0.423341,1.43057
-0.423216,1.43057
-0.423091,1.43023
-0.422966,1.42921
-0.422841,1.42818
-0.422716,1.42647
-0.422591,1.4251
-0.422466,1.42408
-0.422341,1.42374
-0.422216,1.42374
-0.422091,1.42442
-0.421966,1.42476
-0.421841,1.42476
-0.421716,1.4251
-0.421591,1.4251
-0.421466,1.4251
-0.421341,1.4251
-0.421216,1.4251
-0.421091,1.4251
-0.420966,1.42476
-0.420841,1.42545
-0.420716,1.42613
-0.420591,1.42613
-0.420466,1.42647
-0.420341,1.42613
-0.420216,1.42613
-0.420091,1.42681
-0.419966,1.4275
-0.419841,1.42818
-0.419716,1.42886
-0.419591,1.42955
-0.419466,1.43092
-0.419341,1.4316
-0.419216,1.43297
-0.419091,1.43331
-0.418966,1.43399
-0.418841,1.43433
-0.418716,1.43502
-0.418591,1.43604
-0.418466,1.43673
-0.418341,1.43707
-0.418216,1.43741
-0.418091,1.43775
-0.417966,1.43809
-0.417841,1.43912
-0.417716,1.44014
-0.417591,1.44083
-0.417466,1.44185
-0.417341,1.44288
-0.417216,1.44356
-0.417091,1.44459
-0.416966,1.44493
-0.416841,1.44561
-0.416716,1.4463
-0.416591,1.44732
-0.416466,1.44801
-0.416341,1.44801
-0.416216,1.44869
-0.416091,1.44937
-0.415966,1.45006
-0.415841,1.45142
-0.415716,1.45416
-0.415591,1.45587
-0.415466,1.45689
-0.415341,1.45792
-0.415216,1.45826
-0.415091,1.4586
-0.414966,1.45997
-0.414841,1.46065
-0.414716,1.46099
-0.414591,1.46168
-0.414466,1.46236
-0.414341,1.46236
-0.414216,1.46236
-0.414091,1.4627
-0.413966,1.46339
-0.413841,1.46475
-0.413716,1.46578
-0.413591,1.46646
-0.413466,1.46749
-0.413341,1.4692
-0.413216,1.47022
-0.413091,1.47091
-0.412966,1.47159
-0.412841,1.47262
-0.412716,1.47467
-0.412591,1.47569
-0.412466,1.47637
-0.412341,1.47774
-0.412216,1.47877
-0.412091,1.47979
-0.411966,1.48082
-0.411841,1.48184
-0.411716,1.48321
-0.411591,1.48492
-0.411466,1.48595
-0.411341,1.48663
-0.411216,1.48765
-0.411091,1.48868
-0.410966,1.48971
-0.410841,1.49107
-0.410716,1.49141
-0.410591,1.49278
-0.410466,1.49346
-0.410341,1.49483
-0.410216,1.49552
-0.410091,1.49654
-0.409966,1.49757
-0.409841,1.49928
-0.409716,1.49996
-0.409591,1.5003
-0.409466,1.50098
-0.409341,1.50201
-0.409216,1.50269
-0.409091,1.50372
-0.408966,1.50474
-0.408841,1.50577
-0.408716,1.5068
-0.408591,1.50714
-0.408466,1.50782
-0.408341,1.50885
-0.408216,1.50987
-0.408091,1.5109
-0.407966,1.51158
-0.407841,1.51261
-0.407716,1.51431
-0.407591,1.51671
-0.407466,1.51944
-0.407341,1.52354
-0.407216,1.52594
-0.407091,1.52799
-0.406966,1.52901
-0.406841,1.52935
-0.406716,1.53072
-0.406591,1.53277
-0.406466,1.53516
-0.406341,1.53619
-0.406216,1.53687
-0.406091,1.53756
-0.405966,1.5379
-0.405841,1.53858
-0.405716,1.53961
-0.405591,1.54098
-0.405466,1.54268
-0.405341,1.54439
-0.405216,1.54542
-0.405091,1.54713
-0.404966,1.54918
-0.404841,1.55089
-0.404716,1.5526
-0.404591,1.55396
-0.404466,1.55533
-0.404341,1.55704
-0.404216,1.55909
-0.404091,1.5608
-0.403966,1.56251
-0.403841,1.56388
-0.403716,1.56627
-0.403591,1.56764
-0.403466,1.569
-0.403341,1.57071
-0.403216,1.5731
-0.403091,1.57516
-0.402966,1.57652
-0.402841,1.57823
-0.402716,1.57994
-0.402591,1.58233
-0.402466,1.58404
-0.402341,1.58541
-0.402216,1.58712
-0.402091,1.58917
-0.401966,1.59156
-0.401841,1.59361
-0.401716,1.59532
-0.401591,1.59771
-0.401466,1.59942
-0.401341,1.60113
-0.401216,1.6025
-0.401091,1.60421
-0.400966,1.6066
-0.400841,1.60831
-0.400716,1.60968
-0.400591,1.61139
-0.400466,1.61275
-0.400341,1.61549
-0.400216,1.61685
-0.400091,1.61822
-0.399966,1.61993
-0.399841,1.6213
-0.399716,1.62301
-0.399591,1.62437
-0.399466,1.62574
-0.399341,1.62779
-0.399216,1.63053
-0.399091,1.6336
-0.398966,1.63668
-0.398841,1.63907
-0.398716,1.64112
-0.398591,1.64386
-0.398466,1.64488
-0.398341,1.64659
-0.398216,1.64898
-0.398091,1.65172
-0.397966,1.65479
-0.397841,1.65685
-0.397716,1.65787
-0.397591,1.65958
-0.397466,1.66129
-0.397341,1.663
-0.397216,1.66505
-0.397091,1.66778
-0.396966,1.67018
-0.396841,1.67223
-0.396716,1.67428
-0.396591,1.67667
-0.396466,1.67975
-0.396341,1.68248
-0.396216,1.68453
-0.396091,1.68658
-0.395966,1.68932
-0.395841,1.69103
-0.395716,1.69376
-0.395591,1.69581
-0.395466,1.69786
-0.395341,1.70025
-0.395216,1.70265
-0.395091,1.7047
-0.394966,1.70606
-0.394841,1.70812
-0.394716,1.71085
-0.394591,1.7129
-0.394466,1.71461
-0.394341,1.717
-0.394216,1.71905
-0.394091,1.72145
-0.393966,1.72315
-0.393841,1.72555
-0.393716,1.7276
-0.393591,1.73033
-0.393466,1.73238
-0.393341,1.73375
-0.393216,1.7358
-0.393091,1.73819
-0.392966,1.7399
-0.392841,1.74127
-0.392716,1.74332
-0.392591,1.74469
-0.392466,1.7464
-0.392341,1.74811
-0.392216,1.74981
-0.392091,1.75152
-0.391966,1.75357
-0.391841,1.75528
-0.391716,1.75699
-0.391591,1.75836
-0.391466,1.76041
-0.391341,1.76212
-0.391216,1.76383
-0.391091,1.76554
-0.390966,1.76793
-0.390841,1.77101
-0.390716,1.77374
-0.390591,1.77579
-0.390466,1.77853
-0.390341,1.78058
-0.390216,1.78365
-0.390091,1.78536
-0.389966,1.7857
-0.389841,1.7881
-0.389716,1.79015
-0.389591,1.7922
-0.389466,1.7922
-0.389341,1.79254
-0.389216,1.79322
-0.389091,1.79391
-0.388966,1.79527
-0.388841,1.7963
-0.388716,1.79767
-0.388591,1.79938
-0.388466,1.80074
-0.388341,1.80211
-0.388216,1.80314
-0.388091,1.8045
-0.387966,1.80621
-0.387841,1.80758
-0.387716,1.8086
-0.387591,1.80963
-0.387466,1.81066
-0.387341,1.81168
-0.387216,1.81305
-0.387091,1.81407
-0.386966,1.8151
-0.386841,1.81612
-0.386716,1.81681
-0.386591,1.81715
-0.386466,1.81817
-0.386341,1.81954
-0.386216,1.82091
-0.386091,1.82125
-0.385966,1.82193
-0.385841,1.82296
-0.385716,1.82399
-0.385591,1.82399
-0.385466,1.82467
-0.385341,1.82569
-0.385216,1.82638
-0.385091,1.82775
-0.384966,1.82775
-0.384841,1.82775
-0.384716,1.82877
-0.384591,1.82911
-0.384466,1.82945
-0.384341,1.8298
-0.384216,1.83048
-0.384091,1.83116
-0.383966,1.83116
-0.383841,1.83151
-0.383716,1.83151
-0.383591,1.83082
-0.383466,1.83116
-0.383341,1.83116
-0.383216,1.83048
-0.383091,1.83014
-0.382966,1.82945
-0.382841,1.8298
-0.382716,1.82911
-0.382591,1.82911
-0.382466,1.8298
-0.382341,1.83082
-0.382216,1.83048
-0.382091,1.8298
-0.381966,1.82945
-0.381841,1.82877
-0.381716,1.82877
-0.381591,1.8274
-0.381466,1.82672
-0.381341,1.82672
-0.381216,1.82604
-0.381091,1.82467
-0.380966,1.82296
-0.380841,1.82159
-0.380716,1.82057
-0.380591,1.81988
-0.380466,1.81954
-0.380341,1.81852
-0.380216,1.81817
-0.380091,1.81852
-0.379966,1.81783
-0.379841,1.81647
-0.379716,1.81578
-0.379591,1.81544
-0.379466,1.81544
-0.379341,1.81442
-0.379216,1.81373
-0.379091,1.81305
-0.378966,1.81236
-0.378841,1.811
-0.378716,1.80963
-0.378591,1.8086
-0.378466,1.8086
-0.378341,1.80758
-0.378216,1.80621
-0.378091,1.80519
-0.377966,1.8045
-0.377841,1.80416
-0.377716,1.80245
-0.377591,1.80143
-0.377466,1.80074
-0.377341,1.79938
-0.377216,1.79869
-0.377091,1.79767
-0.376966,1.79664
-0.376841,1.79596
-0.376716,1.79527
-0.376591,1.79459
-0.376466,1.79322
-0.376341,1.7922
-0.376216,1.7922
-0.376091,1.79186
-0.375966,1.79015
-0.375841,1.78946
-0.375716,1.78844
-0.375591,1.78741
-0.375466,1.78673
-0.375341,1.78536
-0.375216,1.78468
