GR-XX02/GearV2Main/CordDet/OrgData/thickCord-C-05.csv

#Digilent WaveForms Oscilloscope Acquisition
#Device Name: Discovery2
#Serial Number: SN:210321A41D55
#Date Time: 2020-05-21 14:21:31.473
#Sample rate: 8000Hz
#Samples: 8192
#Trigger: Source: Channel 1 Type: Edge Condition: Falling Level: 1.6 V Hyst.: Auto HoldOff: 0 s
#Channel 1: Range: 500 mV/div Offset: -1.5 V
#Power Supplies: ON
#Positive Supply: ON
#Voltage: 3.3 V
#Negative Supply: OFF
#Voltage: -1 V

Time (s),Channel 1 (V)
-0.511989,1.81715
-0.511864,1.81612
-0.511739,1.81476
-0.511614,1.81442
-0.511489,1.81305
-0.511364,1.81236
-0.511239,1.81134
-0.511114,1.81066
-0.510989,1.80963
-0.510864,1.8086
-0.510739,1.80758
-0.510614,1.80655
-0.510489,1.80519
-0.510364,1.80519
-0.510239,1.8045
-0.510114,1.80382
-0.509989,1.80348
-0.509864,1.80245
-0.509739,1.80245
-0.509614,1.80177
-0.509489,1.80108
-0.509364,1.80108
-0.509239,1.8004
-0.509114,1.79972
-0.508989,1.79938
-0.508864,1.79835
-0.508739,1.79801
-0.508614,1.79767
-0.508489,1.79698
-0.508364,1.7963
-0.508239,1.79562
-0.508114,1.79459
-0.507989,1.79425
-0.507864,1.79357
-0.507739,1.79391
-0.507614,1.79322
-0.507489,1.7922
-0.507364,1.79254
-0.507239,1.79151
-0.507114,1.79151
-0.506989,1.79117
-0.506864,1.79083
-0.506739,1.79083
-0.506614,1.78981
-0.506489,1.78912
-0.506364,1.78946
-0.506239,1.78981
-0.506114,1.78912
-0.505989,1.78878
-0.505864,1.78844
-0.505739,1.78741
-0.505614,1.78775
-0.505489,1.78775
-0.505364,1.78673
-0.505239,1.78605
-0.505114,1.78536
-0.504989,1.78502
-0.504864,1.78434
-0.504739,1.78297
-0.504614,1.78263
-0.504489,1.78194
-0.504364,1.78126
-0.504239,1.78058
-0.504114,1.78058
-0.503989,1.78058
-0.503864,1.77989
-0.503739,1.77989
-0.503614,1.78024
-0.503489,1.77955
-0.503364,1.77887
-0.503239,1.77921
-0.503114,1.77921
-0.502989,1.77818
-0.502864,1.7775
-0.502739,1.7775
-0.502614,1.77648
-0.502489,1.77579
-0.502364,1.77545
-0.502239,1.77477
-0.502114,1.77374
-0.501989,1.77306
-0.501864,1.77237
-0.501739,1.77203
-0.501614,1.77135
-0.501489,1.77135
-0.501364,1.77066
-0.501239,1.77066
-0.501114,1.77032
-0.500989,1.76998
-0.500864,1.7693
-0.500739,1.76896
-0.500614,1.76793
-0.500489,1.76759
-0.500364,1.76725
-0.500239,1.76759
-0.500114,1.7669
-0.499989,1.76725
-0.499864,1.7669
-0.499739,1.76588
-0.499614,1.76622
-0.499489,1.76554
-0.499364,1.7652
-0.499239,1.76554
-0.499114,1.76588
-0.498989,1.76656
-0.498864,1.76656
-0.498739,1.76554
-0.498614,1.76554
-0.498489,1.7652
-0.498364,1.76485
-0.498239,1.76417
-0.498114,1.76383
-0.497989,1.76417
-0.497864,1.76417
-0.497739,1.76383
-0.497614,1.76451
-0.497489,1.76485
-0.497364,1.76349
-0.497239,1.76383
-0.497114,1.76383
-0.496989,1.76315
-0.496864,1.76315
-0.496739,1.76212
-0.496614,1.76109
-0.496489,1.76007
-0.496364,1.76007
-0.496239,1.76075
-0.496114,1.76041
-0.495989,1.75904
-0.495864,1.75836
-0.495739,1.75802
-0.495614,1.75733
-0.495489,1.75836
-0.495364,1.75836
-0.495239,1.75768
-0.495114,1.75768
-0.494989,1.75733
-0.494864,1.75665
-0.494739,1.75665
-0.494614,1.75665
-0.494489,1.75665
-0.494364,1.75699
-0.494239,1.75631
-0.494114,1.75699
-0.493989,1.75733
-0.493864,1.75733
-0.493739,1.75768
-0.493614,1.75802
-0.493489,1.75904
-0.493364,1.75904
-0.493239,1.75939
-0.493114,1.76007
-0.492989,1.76075
-0.492864,1.76109
-0.492739,1.76144
-0.492614,1.76178
-0.492489,1.7628
-0.492364,1.76349
-0.492239,1.76383
-0.492114,1.76451
-0.491989,1.76485
-0.491864,1.7652
-0.491739,1.76554
-0.491614,1.76588
-0.491489,1.76622
-0.491364,1.76656
-0.491239,1.7669
-0.491114,1.76759
-0.490989,1.76793
-0.490864,1.76861
-0.490739,1.76964
-0.490614,1.76998
-0.490489,1.77101
-0.490364,1.77237
-0.490239,1.77306
-0.490114,1.77306
-0.489989,1.77442
-0.489864,1.77545
-0.489739,1.77511
-0.489614,1.77579
-0.489489,1.77716
-0.489364,1.7775
-0.489239,1.77716
-0.489114,1.77784
-0.488989,1.77784
-0.488864,1.77818
-0.488739,1.77887
-0.488614,1.78024
-0.488489,1.78092
-0.488364,1.78092
-0.488239,1.78194
-0.488114,1.78331
-0.487989,1.78536
-0.487864,1.78639
-0.487739,1.78707
-0.487614,1.78878
-0.487489,1.78981
-0.487364,1.79151
-0.487239,1.79186
-0.487114,1.79322
-0.486989,1.79459
-0.486864,1.79562
-0.486739,1.7963
-0.486614,1.79698
-0.486489,1.79938
-0.486364,1.80006
-0.486239,1.80143
-0.486114,1.80314
-0.485989,1.80348
-0.485864,1.80484
-0.485739,1.80655
-0.485614,1.80758
-0.485489,1.80826
-0.485364,1.80929
-0.485239,1.81134
-0.485114,1.81305
-0.484989,1.81339
-0.484864,1.81544
-0.484739,1.81681
-0.484614,1.81817
-0.484489,1.82023
-0.484364,1.82125
-0.484239,1.82228
-0.484114,1.82364
-0.483989,1.82535
-0.483864,1.82638
-0.483739,1.82706
-0.483614,1.82877
-0.483489,1.83082
-0.483364,1.83253
-0.483239,1.83356
-0.483114,1.83458
-0.482989,1.83492
-0.482864,1.83697
-0.482739,1.83868
-0.482614,1.84039
-0.482489,1.8421
-0.482364,1.84347
-0.482239,1.84518
-0.482114,1.84723
-0.481989,1.8486
-0.481864,1.85065
-0.481739,1.85167
-0.481614,1.85304
-0.481489,1.85509
-0.481364,1.85646
-0.481239,1.85885
-0.481114,1.86056
-0.480989,1.86261
-0.480864,1.86466
-0.480739,1.86671
-0.480614,1.86842
-0.480489,1.87081
-0.480364,1.8732
-0.480239,1.87491
-0.480114,1.87628
-0.479989,1.87799
-0.479864,1.87936
-0.479739,1.88107
-0.479614,1.88278
-0.479489,1.88448
-0.479364,1.88551
-0.479239,1.88688
-0.479114,1.88927
-0.478989,1.89064
-0.478864,1.89166
-0.478739,1.89337
-0.478614,1.89542
-0.478489,1.89747
-0.478364,1.89918
-0.478239,1.90021
-0.478114,1.90226
-0.477989,1.90465
-0.477864,1.90602
-0.477739,1.90738
-0.477614,1.90841
-0.477489,1.90978
-0.477364,1.91149
-0.477239,1.91251
-0.477114,1.91354
-0.476989,1.9149
-0.476864,1.91593
-0.476739,1.91696
-0.476614,1.91764
-0.476489,1.91935
-0.476364,1.92037
-0.476239,1.92208
-0.476114,1.92277
-0.475989,1.92379
-0.475864,1.92379
-0.475739,1.92447
-0.475614,1.92584
-0.475489,1.92653
-0.475364,1.92721
-0.475239,1.92823
-0.475114,1.92892
-0.474989,1.92858
-0.474864,1.92926
-0.474739,1.92994
-0.474614,1.93029
-0.474489,1.93063
-0.474364,1.93131
-0.474239,1.93234
-0.474114,1.93234
-0.473989,1.93302
-0.473864,1.93405
-0.473739,1.93439
-0.473614,1.93541
-0.473489,1.93575
-0.473364,1.9361
-0.473239,1.93712
-0.473114,1.93712
-0.472989,1.9378
-0.472864,1.93849
-0.472739,1.93917
-0.472614,1.93951
-0.472489,1.9402
-0.472364,1.9402
-0.472239,1.94088
-0.472114,1.94122
-0.471989,1.94156
-0.471864,1.94259
-0.471739,1.94293
-0.471614,1.94259
-0.471489,1.94362
-0.471364,1.94464
-0.471239,1.94532
-0.471114,1.94601
-0.470989,1.94703
-0.470864,1.94772
-0.470739,1.94874
-0.470614,1.94908
-0.470489,1.95011
-0.470364,1.95079
-0.470239,1.95114
-0.470114,1.95216
-0.469989,1.9525
-0.469864,1.95284
-0.469739,1.95353
-0.469614,1.95353
-0.469489,1.95353
-0.469364,1.95319
-0.469239,1.95387
-0.469114,1.95387
-0.468989,1.95353
-0.468864,1.95319
-0.468739,1.95284
-0.468614,1.95319
-0.468489,1.95284
-0.468364,1.95319
-0.468239,1.95387
-0.468114,1.95387
-0.467989,1.95353
-0.467864,1.95284
-0.467739,1.95353
-0.467614,1.95353
-0.467489,1.9525
-0.467364,1.9525
-0.467239,1.95148
-0.467114,1.95216
-0.466989,1.95114
-0.466864,1.94977
-0.466739,1.94908
-0.466614,1.94874
-0.466489,1.94669
-0.466364,1.94601
-0.466239,1.94498
-0.466114,1.9443
-0.465989,1.94464
-0.465864,1.94396
-0.465739,1.94327
-0.465614,1.94156
-0.465489,1.94191
-0.465364,1.94088
-0.465239,1.9402
-0.465114,1.93917
-0.464989,1.93917
-0.464864,1.9378
-0.464739,1.93678
-0.464614,1.9361
-0.464489,1.93541
-0.464364,1.93439
-0.464239,1.93439
-0.464114,1.9337
-0.463989,1.93268
-0.463864,1.93199
-0.463739,1.93131
-0.463614,1.93029
-0.463489,1.92994
-0.463364,1.92892
-0.463239,1.92823
-0.463114,1.92755
-0.462989,1.92721
-0.462864,1.92721
-0.462739,1.92687
-0.462614,1.92618
-0.462489,1.92618
-0.462364,1.9255
-0.462239,1.92482
-0.462114,1.92516
-0.461989,1.92447
-0.461864,1.92379
-0.461739,1.92345
-0.461614,1.92242
-0.461489,1.92174
-0.461364,1.9214
-0.461239,1.92037
-0.461114,1.92003
-0.460989,1.91901
-0.460864,1.91866
-0.460739,1.91832
-0.460614,1.91696
-0.460489,1.91696
-0.460364,1.91661
-0.460239,1.91559
-0.460114,1.91456
-0.459989,1.91422
-0.459864,1.91285
-0.459739,1.91114
-0.459614,1.90978
-0.459489,1.90909
-0.459364,1.90807
-0.459239,1.9067
-0.459114,1.90533
-0.458989,1.90499
-0.458864,1.90328
-0.458739,1.90157
-0.458614,1.90089
-0.458489,1.89884
-0.458364,1.89781
-0.458239,1.89713
-0.458114,1.89542
-0.457989,1.8944
-0.457864,1.89371
-0.457739,1.89235
-0.457614,1.89132
-0.457489,1.89166
-0.457364,1.89132
-0.457239,1.89029
-0.457114,1.88927
-0.456989,1.88859
-0.456864,1.88859
-0.456739,1.88756
-0.456614,1.88653
-0.456489,1.88517
-0.456364,1.88483
-0.456239,1.88517
-0.456114,1.88448
-0.455989,1.88346
-0.455864,1.88346
-0.455739,1.88312
-0.455614,1.88243
-0.455489,1.88243
-0.455364,1.88107
-0.455239,1.88107
-0.455114,1.8797
-0.454989,1.87799
-0.454864,1.87867
-0.454739,1.87731
-0.454614,1.87731
-0.454489,1.87662
-0.454364,1.87594
-0.454239,1.87526
-0.454114,1.87491
-0.453989,1.87389
-0.453864,1.87355
-0.453739,1.87286
-0.453614,1.87218
-0.453489,1.87218
-0.453364,1.87115
-0.453239,1.87013
-0.453114,1.8691
-0.452989,1.86842
-0.452864,1.86705
-0.452739,1.86603
-0.452614,1.86432
-0.452489,1.86295
-0.452364,1.86227
-0.452239,1.86124
-0.452114,1.86022
-0.451989,1.85885
-0.451864,1.85714
-0.451739,1.8568
-0.451614,1.85611
-0.451489,1.85475
-0.451364,1.85338
-0.451239,1.8527
-0.451114,1.85133
-0.450989,1.8503
-0.450864,1.84962
-0.450739,1.8486
-0.450614,1.84825
-0.450489,1.84757
-0.450364,1.84689
-0.450239,1.84654
-0.450114,1.84586
-0.449989,1.84518
-0.449864,1.84347
-0.449739,1.84244
-0.449614,1.84142
-0.449489,1.84005
-0.449364,1.83902
-0.449239,1.83766
-0.449114,1.83697
-0.448989,1.83697
-0.448864,1.83492
-0.448739,1.83321
-0.448614,1.83253
-0.448489,1.83185
-0.448364,1.83082
-0.448239,1.83014
-0.448114,1.82945
-0.447989,1.8298
-0.447864,1.8298
-0.447739,1.82843
-0.447614,1.82775
-0.447489,1.82809
-0.447364,1.82706
-0.447239,1.82706
-0.447114,1.82672
-0.446989,1.82638
-0.446864,1.82535
-0.446739,1.82501
-0.446614,1.82399
-0.446489,1.82228
-0.446364,1.82193
-0.446239,1.82091
-0.446114,1.82023
-0.445989,1.8192
-0.445864,1.81783
-0.445739,1.81817
-0.445614,1.81715
-0.445489,1.81715
-0.445364,1.81647
-0.445239,1.81578
-0.445114,1.81407
-0.444989,1.81407
-0.444864,1.81271
-0.444739,1.81236
-0.444614,1.81134
-0.444489,1.81031
-0.444364,1.80929
-0.444239,1.80929
-0.444114,1.80895
-0.443989,1.80792
-0.443864,1.80621
-0.443739,1.80587
-0.443614,1.80416
-0.443489,1.80348
-0.443364,1.80348
-0.443239,1.80211
-0.443114,1.80108
-0.442989,1.8004
-0.442864,1.79938
-0.442739,1.79835
-0.442614,1.79698
-0.442489,1.7963
-0.442364,1.79562
-0.442239,1.79562
-0.442114,1.79527
-0.441989,1.79493
-0.441864,1.79425
-0.441739,1.79357
-0.441614,1.79288
-0.441489,1.79186
-0.441364,1.79117
-0.441239,1.79049
-0.441114,1.78878
-0.440989,1.78844
-0.440864,1.78741
-0.440739,1.78707
-0.440614,1.78707
-0.440489,1.78707
-0.440364,1.78673
-0.440239,1.78673
-0.440114,1.78707
-0.439989,1.78707
-0.439864,1.78673
-0.439739,1.78605
-0.439614,1.78605
-0.439489,1.78536
-0.439364,1.78502
-0.439239,1.78502
-0.439114,1.78399
-0.438989,1.78331
-0.438864,1.78229
-0.438739,1.7816
-0.438614,1.78092
-0.438489,1.77955
-0.438364,1.77853
-0.438239,1.77716
-0.438114,1.77682
-0.437989,1.77648
-0.437864,1.77613
-0.437739,1.77579
-0.437614,1.77511
-0.437489,1.77511
-0.437364,1.77477
-0.437239,1.77477
-0.437114,1.77511
-0.436989,1.77477
-0.436864,1.77511
-0.436739,1.77545
-0.436614,1.77511
-0.436489,1.77477
-0.436364,1.77477
-0.436239,1.77477
-0.436114,1.77408
-0.435989,1.77374
-0.435864,1.77374
-0.435739,1.77306
-0.435614,1.77306
-0.435489,1.77237
-0.435364,1.77203
-0.435239,1.77272
-0.435114,1.7734
-0.434989,1.7734
-0.434864,1.7734
-0.434739,1.77272
-0.434614,1.77272
-0.434489,1.77237
-0.434364,1.77272
-0.434239,1.77203
-0.434114,1.77237
-0.433989,1.77203
-0.433864,1.77101
-0.433739,1.77203
-0.433614,1.77237
-0.433489,1.77237
-0.433364,1.77237
-0.433239,1.77169
-0.433114,1.77203
-0.432989,1.77169
-0.432864,1.77135
-0.432739,1.77169
-0.432614,1.77237
-0.432489,1.77066
-0.432364,1.77032
-0.432239,1.77101
-0.432114,1.76998
-0.431989,1.76896
-0.431864,1.76896
-0.431739,1.76896
-0.431614,1.7693
-0.431489,1.76998
-0.431364,1.77032
-0.431239,1.77135
-0.431114,1.77169
-0.430989,1.77203
-0.430864,1.77203
-0.430739,1.77203
-0.430614,1.77101
-0.430489,1.77066
-0.430364,1.77032
-0.430239,1.77066
-0.430114,1.77101
-0.429989,1.77101
-0.429864,1.77066
-0.429739,1.77203
-0.429614,1.77203
-0.429489,1.77203
-0.429364,1.77306
-0.429239,1.77374
-0.429114,1.77306
-0.428989,1.77306
-0.428864,1.77306
-0.428739,1.77306
-0.428614,1.77306
-0.428489,1.77272
-0.428364,1.77237
-0.428239,1.77203
-0.428114,1.77101
-0.427989,1.77032
-0.427864,1.77066
-0.427739,1.77066
-0.427614,1.77032
-0.427489,1.77066
-0.427364,1.77101
-0.427239,1.77169
-0.427114,1.77306
-0.426989,1.7734
-0.426864,1.7734
-0.426739,1.77442
-0.426614,1.77545
-0.426489,1.77613
-0.426364,1.77648
-0.426239,1.77682
-0.426114,1.77716
-0.425989,1.77784
-0.425864,1.77921
-0.425739,1.77955
-0.425614,1.77989
-0.425489,1.78126
-0.425364,1.78263
-0.425239,1.78331
-0.425114,1.78399
-0.424989,1.78502
-0.424864,1.78639
-0.424739,1.78707
-0.424614,1.7881
-0.424489,1.78981
-0.424364,1.78981
-0.424239,1.79151
-0.424114,1.79322
-0.423989,1.79357
-0.423864,1.79459
-0.423739,1.79664
-0.423614,1.79835
-0.423489,1.79938
-0.423364,1.8004
-0.423239,1.80143
-0.423114,1.80177
-0.422989,1.80314
-0.422864,1.80519
-0.422739,1.80621
-0.422614,1.80724
-0.422489,1.80963
-0.422364,1.81134
-0.422239,1.81202
-0.422114,1.81339
-0.421989,1.81476
-0.421864,1.81544
-0.421739,1.81612
-0.421614,1.81817
-0.421489,1.81886
-0.421364,1.81988
-0.421239,1.82159
-0.421114,1.8233
-0.420989,1.82399
-0.420864,1.82501
-0.420739,1.82638
-0.420614,1.82809
-0.420489,1.83048
-0.420364,1.83185
-0.420239,1.8339
-0.420114,1.83629
-0.419989,1.83766
-0.419864,1.83834
-0.419739,1.83971
-0.419614,1.84073
-0.419489,1.84142
-0.419364,1.8421
-0.419239,1.84347
-0.419114,1.84518
-0.418989,1.84723
-0.418864,1.84928
-0.418739,1.8503
-0.418614,1.85304
-0.418489,1.85509
-0.418364,1.8568
-0.418239,1.85885
-0.418114,1.85953
-0.417989,1.8609
-0.417864,1.86261
-0.417739,1.86363
-0.417614,1.86432
-0.417489,1.865
-0.417364,1.86603
-0.417239,1.86671
-0.417114,1.86705
-0.416989,1.86774
-0.416864,1.86876
-0.416739,1.86944
-0.416614,1.87047
-0.416489,1.8715
-0.416364,1.87252
-0.416239,1.87389
-0.416114,1.87491
-0.415989,1.87594
-0.415864,1.87765
-0.415739,1.87799
-0.415614,1.87867
-0.415489,1.88004
-0.415364,1.88107
-0.415239,1.88243
-0.415114,1.88312
-0.414989,1.88414
-0.414864,1.88517
-0.414739,1.88653
-0.414614,1.88756
-0.414489,1.88927
-0.414364,1.89029
-0.414239,1.89166
-0.414114,1.89337
-0.413989,1.89474
-0.413864,1.89611
-0.413739,1.89747
-0.413614,1.8985
-0.413489,1.90089
-0.413364,1.90192
-0.413239,1.90328
-0.413114,1.90431
-0.412989,1.90602
-0.412864,1.90704
-0.412739,1.90807
-0.412614,1.90978
-0.412489,1.91183
-0.412364,1.91354
-0.412239,1.91525
-0.412114,1.91661
-0.411989,1.91866
-0.411864,1.91935
-0.411739,1.92071
-0.411614,1.9214
-0.411489,1.92174
-0.411364,1.92311
-0.411239,1.92447
-0.411114,1.92516
-0.410989,1.92584
-0.410864,1.92653
-0.410739,1.92789
-0.410614,1.92789
-0.410489,1.92926
-0.410364,1.93029
-0.410239,1.93097
-0.410114,1.93165
-0.409989,1.93268
-0.409864,1.93336
-0.409739,1.93507
-0.409614,1.93575
-0.409489,1.9361
-0.409364,1.93644
-0.409239,1.93644
-0.409114,1.93712
-0.408989,1.93849
-0.408864,1.93917
-0.408739,1.93986
-0.408614,1.94088
-0.408489,1.94259
-0.408364,1.9443
-0.408239,1.94464
-0.408114,1.94567
-0.407989,1.94567
-0.407864,1.94498
-0.407739,1.94532
-0.407614,1.94601
-0.407489,1.94738
-0.407364,1.94806
-0.407239,1.94908
-0.407114,1.95079
-0.406989,1.9525
-0.406864,1.95387
-0.406739,1.95524
-0.406614,1.95626
-0.406489,1.95695
-0.406364,1.95763
-0.406239,1.959
-0.406114,1.959
-0.405989,1.95968
-0.405864,1.96071
-0.405739,1.96105
-0.405614,1.96173
-0.405489,1.9631
-0.405364,1.96412
-0.405239,1.96481
-0.405114,1.96652
-0.404989,1.96823
-0.404864,1.96857
-0.404739,1.96925
-0.404614,1.97062
-0.404489,1.97164
-0.404364,1.97301
-0.404239,1.97335
-0.404114,1.97301
-0.403989,1.97335
-0.403864,1.97472
-0.403739,1.97609
-0.403614,1.9778
-0.403489,1.97814
-0.403364,1.97814
-0.403239,1.97985
-0.403114,1.97985
-0.402989,1.97985
-0.402864,1.98019
-0.402739,1.98019
-0.402614,1.98087
-0.402489,1.98087
-0.402364,1.98156
-0.402239,1.98258
-0.402114,1.98258
-0.401989,1.98326
-0.401864,1.98395
-0.401739,1.98395
-0.401614,1.98395
-0.401489,1.98463
-0.401364,1.98532
-0.401239,1.98566
-0.401114,1.98634
-0.400989,1.986
-0.400864,1.98634
-0.400739,1.98737
-0.400614,1.98702
-0.400489,1.98805
-0.400364,1.98839
-0.400239,1.98839
-0.400114,1.98839
-0.399989,1.98839
-0.399864,1.98839
-0.399739,1.98805
-0.399614,1.98839
-0.399489,1.98873
-0.399364,1.98976
-0.399239,1.98873
-0.399114,1.98839
-0.398989,1.98942
-0.398864,1.98942
-0.398739,1.98907
-0.398614,1.98873
-0.398489,1.98907
-0.398364,1.98942
-0.398239,1.98942
-0.398114,1.98942
-0.397989,1.98976
-0.397864,1.98942
-0.397739,1.98942
-0.397614,1.99044
-0.397489,1.98976
-0.397364,1.98942
-0.397239,1.98976
-0.397114,1.98976
-0.396989,1.98873
-0.396864,1.98771
-0.396739,1.98702
-0.396614,1.98702
-0.396489,1.98771
-0.396364,1.98771
-0.396239,1.98839
-0.396114,1.98873
-0.395989,1.98771
-0.395864,1.98668
-0.395739,1.98532
-0.395614,1.98497
-0.395489,1.98429
-0.395364,1.98292
-0.395239,1.98258
-0.395114,1.98258
-0.394989,1.98224
-0.394864,1.98292
-0.394739,1.98258
-0.394614,1.98292
-0.394489,1.98292
-0.394364,1.9819
-0.394239,1.98121
-0.394114,1.98019
-0.393989,1.97882
-0.393864,1.97745
-0.393739,1.97609
-0.393614,1.97506
-0.393489,1.97404
-0.393364,1.97301
-0.393239,1.97233
-0.393114,1.97198
-0.392989,1.97096
-0.392864,1.96959
-0.392739,1.96857
-0.392614,1.96754
-0.392489,1.96617
-0.392364,1.96412
-0.392239,1.96207
-0.392114,1.96105
-0.391989,1.95934
-0.391864,1.95797
-0.391739,1.9566
-0.391614,1.95524
-0.391489,1.95387
-0.391364,1.9525
-0.391239,1.95079
-0.391114,1.94908
-0.390989,1.94738
-0.390864,1.94635
-0.390739,1.94464
-0.390614,1.94327
-0.390489,1.94225
-0.390364,1.94122
-0.390239,1.93986
-0.390114,1.93917
-0.389989,1.93883
-0.389864,1.93746
-0.389739,1.93644
-0.389614,1.93644
-0.389489,1.93507
-0.389364,1.93405
-0.389239,1.93302
-0.389114,1.93268
-0.388989,1.93165
-0.388864,1.93097
-0.388739,1.93063
-0.388614,1.93029
-0.388489,1.92892
-0.388364,1.92789
-0.388239,1.92721
-0.388114,1.92618
-0.387989,1.92516
-0.387864,1.92447
-0.387739,1.92345
-0.387614,1.92277
-0.387489,1.92208
-0.387364,1.92208
-0.387239,1.92277
-0.387114,1.92379
-0.386989,1.92516
-0.386864,1.92653
-0.386739,1.92687
-0.386614,1.92755
-0.386489,1.92823
-0.386364,1.92823
-0.386239,1.92755
-0.386114,1.92687
-0.385989,1.92653
-0.385864,1.92721
-0.385739,1.92618
-0.385614,1.9255
-0.385489,1.92584
-0.385364,1.92584
-0.385239,1.92584
-0.385114,1.92516
-0.384989,1.92516
-0.384864,1.9255
-0.384739,1.9255
-0.384614,1.92584
-0.384489,1.92516
-0.384364,1.9255
-0.384239,1.9255
-0.384114,1.92516
-0.383989,1.9255
-0.383864,1.9255
-0.383739,1.92516
-0.383614,1.9255
-0.383489,1.9255
-0.383364,1.92482
-0.383239,1.92482
-0.383114,1.92447
-0.382989,1.92413
-0.382864,1.92516
-0.382739,1.92482
-0.382614,1.92413
-0.382489,1.92379
-0.382364,1.92311
-0.382239,1.92208
-0.382114,1.92174
-0.381989,1.9214
-0.381864,1.9214
-0.381739,1.9214
-0.381614,1.92106
-0.381489,1.92106
-0.381364,1.9214
-0.381239,1.92174
-0.381114,1.9214
-0.380989,1.92106
-0.380864,1.92071
-0.380739,1.92071
-0.380614,1.92037
-0.380489,1.92003
-0.380364,1.91935
-0.380239,1.91866
-0.380114,1.91832
-0.379989,1.91866
-0.379864,1.91764
-0.379739,1.91764
-0.379614,1.9173
-0.379489,1.91661
-0.379364,1.91661
-0.379239,1.91661
-0.379114,1.91696
-0.378989,1.91627
-0.378864,1.91696
-0.378739,1.9173
-0.378614,1.9173
-0.378489,1.91764
-0.378364,1.91798
-0.378239,1.91764
-0.378114,1.91764
-0.377989,1.91764
-0.377864,1.91798
-0.377739,1.91832
-0.377614,1.91764
-0.377489,1.91832
-0.377364,1.91764
-0.377239,1.9173
-0.377114,1.91798
-0.376989,1.91764
-0.376864,1.91661
-0.376739,1.91696
-0.376614,1.91696
-0.376489,1.91696
-0.376364,1.91661
-0.376239,1.91627
-0.376114,1.91559
-0.375989,1.91559
-0.375864,1.91593
-0.375739,1.91661
-0.375614,1.91627
