GR-XX02/GearV2Main/CordDet/OrgData/thickCord-A-02.csv

#Digilent WaveForms Oscilloscope Acquisition
#Device Name: Discovery2
#Serial Number: SN:210321A41D55
#Date Time: 2020-05-13 22:34:45.432
#Sample rate: 8000Hz
#Samples: 8192
#Trigger: Source: Channel 1 Type: Edge Condition: Falling Level: 1 V Hyst.: Auto HoldOff: 0 s
#Channel 1: Range: 500 mV/div Offset: -1.5 V
#Power Supplies: ON
#Positive Supply: ON
#Voltage: 3.3 V
#Negative Supply: OFF
#Voltage: -1 V

Time (s),Channel 1 (V)
-0.511908,1.58267
-0.511783,1.58199
-0.511658,1.58233
-0.511533,1.58165
-0.511408,1.58097
-0.511283,1.58233
-0.511158,1.58233
-0.511033,1.58199
-0.510908,1.58267
-0.510783,1.58267
-0.510658,1.58233
-0.510533,1.58233
-0.510408,1.58267
-0.510283,1.5837
-0.510158,1.58336
-0.510033,1.58233
-0.509908,1.58199
-0.509783,1.58199
-0.509658,1.58233
-0.509533,1.58233
-0.509408,1.58302
-0.509283,1.58302
-0.509158,1.58233
-0.509033,1.58267
-0.508908,1.58233
-0.508783,1.58302
-0.508658,1.5837
-0.508533,1.58336
-0.508408,1.5837
-0.508283,1.58302
-0.508158,1.58267
-0.508033,1.58233
-0.507908,1.58267
-0.507783,1.58267
-0.507658,1.58267
-0.507533,1.58233
-0.507408,1.58267
-0.507283,1.58336
-0.507158,1.58336
-0.507033,1.58302
-0.506908,1.58336
-0.506783,1.58233
-0.506658,1.58233
-0.506533,1.58336
-0.506408,1.58302
-0.506283,1.58302
-0.506158,1.58267
-0.506033,1.58199
-0.505908,1.58267
-0.505783,1.58336
-0.505658,1.58404
-0.505533,1.58404
-0.505408,1.5837
-0.505283,1.58336
-0.505158,1.58336
-0.505033,1.58267
-0.504908,1.5837
-0.504783,1.58473
-0.504658,1.58473
-0.504533,1.58438
-0.504408,1.58507
-0.504283,1.58507
-0.504158,1.58404
-0.504033,1.58473
-0.503908,1.5837
-0.503783,1.5837
-0.503658,1.58438
-0.503533,1.58302
-0.503408,1.58267
-0.503283,1.5837
-0.503158,1.58404
-0.503033,1.58507
-0.502908,1.58302
-0.502783,1.58336
-0.502658,1.58404
-0.502533,1.58233
-0.502408,1.58302
-0.502283,1.5837
-0.502158,1.58404
-0.502033,1.58267
-0.501908,1.58302
-0.501783,1.58404
-0.501658,1.5837
-0.501533,1.58404
-0.501408,1.5837
-0.501283,1.58302
-0.501158,1.58336
-0.501033,1.58336
-0.500908,1.58302
-0.500783,1.58336
-0.500658,1.58302
-0.500533,1.58267
-0.500408,1.58199
-0.500283,1.58199
-0.500158,1.58267
-0.500033,1.58302
-0.499908,1.58336
-0.499783,1.58336
-0.499658,1.58336
-0.499533,1.58233
-0.499408,1.58199
-0.499283,1.58302
-0.499158,1.58302
-0.499033,1.58233
-0.498908,1.58336
-0.498783,1.58267
-0.498658,1.58267
-0.498533,1.58336
-0.498408,1.58302
-0.498283,1.58404
-0.498158,1.58336
-0.498033,1.58336
-0.497908,1.58302
-0.497783,1.58233
-0.497658,1.58267
-0.497533,1.58233
-0.497408,1.58199
-0.497283,1.58199
-0.497158,1.58233
-0.497033,1.58302
-0.496908,1.58267
-0.496783,1.58267
-0.496658,1.58302
-0.496533,1.58302
-0.496408,1.58302
-0.496283,1.58267
-0.496158,1.58267
-0.496033,1.58267
-0.495908,1.58267
-0.495783,1.58233
-0.495658,1.58267
-0.495533,1.58267
-0.495408,1.58302
-0.495283,1.58233
-0.495158,1.58097
-0.495033,1.58199
-0.494908,1.58131
-0.494783,1.58097
-0.494658,1.58233
-0.494533,1.58233
-0.494408,1.58165
-0.494283,1.58165
-0.494158,1.58165
-0.494033,1.58165
-0.493908,1.58165
-0.493783,1.58199
-0.493658,1.58233
-0.493533,1.58336
-0.493408,1.5837
-0.493283,1.58165
-0.493158,1.58165
-0.493033,1.58233
-0.492908,1.58233
-0.492783,1.58233
-0.492658,1.58302
-0.492533,1.58302
-0.492408,1.58267
-0.492283,1.58199
-0.492158,1.58199
-0.492033,1.58199
-0.491908,1.58233
-0.491783,1.58199
-0.491658,1.58302
-0.491533,1.58336
-0.491408,1.5837
-0.491283,1.5837
-0.491158,1.58302
-0.491033,1.58302
-0.490908,1.58302
-0.490783,1.58267
-0.490658,1.58404
-0.490533,1.58302
-0.490408,1.58302
-0.490283,1.58302
-0.490158,1.58336
-0.490033,1.58438
-0.489908,1.58438
-0.489783,1.58404
-0.489658,1.58473
-0.489533,1.58404
-0.489408,1.5837
-0.489283,1.58302
-0.489158,1.58404
-0.489033,1.58438
-0.488908,1.58404
-0.488783,1.58438
-0.488658,1.58336
-0.488533,1.58267
-0.488408,1.58336
-0.488283,1.58438
-0.488158,1.58609
-0.488033,1.58575
-0.487908,1.58643
-0.487783,1.58643
-0.487658,1.58507
-0.487533,1.58609
-0.487408,1.58541
-0.487283,1.58473
-0.487158,1.58438
-0.487033,1.58438
-0.486908,1.58336
-0.486783,1.58233
-0.486658,1.58267
-0.486533,1.58302
-0.486408,1.58199
-0.486283,1.58233
-0.486158,1.58199
-0.486033,1.58199
-0.485908,1.58302
-0.485783,1.58302
-0.485658,1.58302
-0.485533,1.5837
-0.485408,1.58302
-0.485283,1.58404
-0.485158,1.58336
-0.485033,1.58336
-0.484908,1.58336
-0.484783,1.58233
-0.484658,1.58199
-0.484533,1.58233
-0.484408,1.58233
-0.484283,1.58267
-0.484158,1.58302
-0.484033,1.58267
-0.483908,1.58267
-0.483783,1.58302
-0.483658,1.58302
-0.483533,1.58267
-0.483408,1.58267
-0.483283,1.58302
-0.483158,1.58267
-0.483033,1.5837
-0.482908,1.58336
-0.482783,1.58404
-0.482658,1.58336
-0.482533,1.58336
-0.482408,1.58336
-0.482283,1.58267
-0.482158,1.58233
-0.482033,1.58267
-0.481908,1.58336
-0.481783,1.58267
-0.481658,1.58233
-0.481533,1.58233
-0.481408,1.58233
-0.481283,1.58233
-0.481158,1.58233
-0.481033,1.58199
-0.480908,1.58131
-0.480783,1.58131
-0.480658,1.58131
-0.480533,1.58199
-0.480408,1.58199
-0.480283,1.58199
-0.480158,1.58199
-0.480033,1.58165
-0.479908,1.58165
-0.479783,1.58267
-0.479658,1.58267
-0.479533,1.58267
-0.479408,1.58302
-0.479283,1.58267
-0.479158,1.58267
-0.479033,1.58267
-0.478908,1.58267
-0.478783,1.58267
-0.478658,1.58233
-0.478533,1.58233
-0.478408,1.58131
-0.478283,1.58233
-0.478158,1.58199
-0.478033,1.58233
-0.477908,1.58302
-0.477783,1.58233
-0.477658,1.58267
-0.477533,1.58267
-0.477408,1.58165
-0.477283,1.58267
-0.477158,1.58199
-0.477033,1.58199
-0.476908,1.58165
-0.476783,1.58165
-0.476658,1.58199
-0.476533,1.58233
-0.476408,1.58267
-0.476283,1.58165
-0.476158,1.58233
-0.476033,1.58233
-0.475908,1.58233
-0.475783,1.58336
-0.475658,1.58302
-0.475533,1.58302
-0.475408,1.58302
-0.475283,1.58302
-0.475158,1.58404
-0.475033,1.58336
-0.474908,1.58302
-0.474783,1.5837
-0.474658,1.58267
-0.474533,1.58302
-0.474408,1.58302
-0.474283,1.58336
-0.474158,1.58336
-0.474033,1.58336
-0.473908,1.5837
-0.473783,1.58302
-0.473658,1.58336
-0.473533,1.58336
-0.473408,1.58302
-0.473283,1.58233
-0.473158,1.58267
-0.473033,1.58267
-0.472908,1.5837
-0.472783,1.58404
-0.472658,1.58473
-0.472533,1.58336
-0.472408,1.58336
-0.472283,1.58473
-0.472158,1.58404
-0.472033,1.58404
-0.471908,1.58438
-0.471783,1.5837
-0.471658,1.58336
-0.471533,1.5837
-0.471408,1.58541
-0.471283,1.58473
-0.471158,1.58473
-0.471033,1.58507
-0.470908,1.58438
-0.470783,1.58438
-0.470658,1.58438
-0.470533,1.58404
-0.470408,1.58473
-0.470283,1.58404
-0.470158,1.58302
-0.470033,1.58233
-0.469908,1.58165
-0.469783,1.58199
-0.469658,1.58165
-0.469533,1.58199
-0.469408,1.58199
-0.469283,1.58199
-0.469158,1.58131
-0.469033,1.58097
-0.468908,1.58165
-0.468783,1.58199
-0.468658,1.58267
-0.468533,1.58267
-0.468408,1.58267
-0.468283,1.58233
-0.468158,1.5837
-0.468033,1.58336
-0.467908,1.5837
-0.467783,1.58438
-0.467658,1.58404
-0.467533,1.58404
-0.467408,1.58336
-0.467283,1.5837
-0.467158,1.58302
-0.467033,1.58165
-0.466908,1.58302
-0.466783,1.58507
-0.466658,1.58404
-0.466533,1.58336
-0.466408,1.58438
-0.466283,1.58473
-0.466158,1.58336
-0.466033,1.58267
-0.465908,1.58233
-0.465783,1.58233
-0.465658,1.58267
-0.465533,1.58233
-0.465408,1.58199
-0.465283,1.58302
-0.465158,1.58233
-0.465033,1.58233
-0.464908,1.58233
-0.464783,1.58199
-0.464658,1.58267
-0.464533,1.58233
-0.464408,1.58302
-0.464283,1.58267
-0.464158,1.58233
-0.464033,1.58199
-0.463908,1.58233
-0.463783,1.58233
-0.463658,1.58233
-0.463533,1.58267
-0.463408,1.58267
-0.463283,1.58233
-0.463158,1.58267
-0.463033,1.58233
-0.462908,1.58233
-0.462783,1.58267
-0.462658,1.58199
-0.462533,1.58199
-0.462408,1.58233
-0.462283,1.58267
-0.462158,1.58267
-0.462033,1.58233
-0.461908,1.58165
-0.461783,1.58131
-0.461658,1.57994
-0.461533,1.57994
-0.461408,1.58028
-0.461283,1.58165
-0.461158,1.58131
-0.461033,1.58165
-0.460908,1.58165
-0.460783,1.58097
-0.460658,1.58062
-0.460533,1.58199
-0.460408,1.58233
-0.460283,1.58336
-0.460158,1.58336
-0.460033,1.58233
-0.459908,1.58233
-0.459783,1.58267
-0.459658,1.58267
-0.459533,1.58267
-0.459408,1.58233
-0.459283,1.58233
-0.459158,1.58233
-0.459033,1.58165
-0.458908,1.58199
-0.458783,1.58199
-0.458658,1.58199
-0.458533,1.58199
-0.458408,1.58199
-0.458283,1.58267
-0.458158,1.58302
-0.458033,1.58302
-0.457908,1.58233
-0.457783,1.58267
-0.457658,1.5837
-0.457533,1.58404
-0.457408,1.58404
-0.457283,1.5837
-0.457158,1.58438
-0.457033,1.58438
-0.456908,1.5837
-0.456783,1.5837
-0.456658,1.5837
-0.456533,1.58302
-0.456408,1.58233
-0.456283,1.58267
-0.456158,1.58336
-0.456033,1.58302
-0.455908,1.58267
-0.455783,1.58267
-0.455658,1.58336
-0.455533,1.58404
-0.455408,1.58336
-0.455283,1.58302
-0.455158,1.58473
-0.455033,1.58438
-0.454908,1.58438
-0.454783,1.58404
-0.454658,1.58404
-0.454533,1.58507
-0.454408,1.5837
-0.454283,1.5837
-0.454158,1.5837
-0.454033,1.58404
-0.453908,1.58336
-0.453783,1.58267
-0.453658,1.58336
-0.453533,1.58199
-0.453408,1.58131
-0.453283,1.58097
-0.453158,1.58062
-0.453033,1.58165
-0.452908,1.58165
-0.452783,1.58131
-0.452658,1.58165
-0.452533,1.58097
-0.452408,1.58131
-0.452283,1.58131
-0.452158,1.58233
-0.452033,1.58336
-0.451908,1.58302
-0.451783,1.58267
-0.451658,1.58404
-0.451533,1.5837
-0.451408,1.58302
-0.451283,1.58336
-0.451158,1.58302
-0.451033,1.58267
-0.450908,1.58336
-0.450783,1.58302
-0.450658,1.58302
-0.450533,1.58336
-0.450408,1.58267
-0.450283,1.58233
-0.450158,1.58336
-0.450033,1.58336
-0.449908,1.58267
-0.449783,1.58233
-0.449658,1.58165
-0.449533,1.58336
-0.449408,1.58267
-0.449283,1.58199
-0.449158,1.58165
-0.449033,1.58165
-0.448908,1.58131
-0.448783,1.58165
-0.448658,1.58199
-0.448533,1.58199
-0.448408,1.58199
-0.448283,1.58199
-0.448158,1.58165
-0.448033,1.58165
-0.447908,1.58233
-0.447783,1.58233
-0.447658,1.58233
-0.447533,1.58302
-0.447408,1.58199
-0.447283,1.58165
-0.447158,1.58131
-0.447033,1.58097
-0.446908,1.58097
-0.446783,1.58097
-0.446658,1.58165
-0.446533,1.58199
-0.446408,1.58199
-0.446283,1.58233
-0.446158,1.58233
-0.446033,1.58302
-0.445908,1.58267
-0.445783,1.58233
-0.445658,1.58233
-0.445533,1.58233
-0.445408,1.58233
-0.445283,1.58131
-0.445158,1.58028
-0.445033,1.58062
-0.444908,1.58097
-0.444783,1.58097
-0.444658,1.58028
-0.444533,1.57994
-0.444408,1.57994
-0.444283,1.57994
-0.444158,1.58028
-0.444033,1.58097
-0.443908,1.58097
-0.443783,1.58097
-0.443658,1.58165
-0.443533,1.58199
-0.443408,1.58233
-0.443283,1.58267
-0.443158,1.58267
-0.443033,1.58336
-0.442908,1.58336
-0.442783,1.58302
-0.442658,1.58302
-0.442533,1.58438
-0.442408,1.58438
-0.442283,1.58438
-0.442158,1.58302
-0.442033,1.58336
-0.441908,1.58404
-0.441783,1.58302
-0.441658,1.58302
-0.441533,1.5837
-0.441408,1.5837
-0.441283,1.58302
-0.441158,1.58302
-0.441033,1.58336
-0.440908,1.58302
-0.440783,1.58267
-0.440658,1.58267
-0.440533,1.58302
-0.440408,1.58336
-0.440283,1.58267
-0.440158,1.58165
-0.440033,1.58267
-0.439908,1.58302
-0.439783,1.58336
-0.439658,1.58336
-0.439533,1.58336
-0.439408,1.58404
-0.439283,1.5837
-0.439158,1.5837
-0.439033,1.58438
-0.438908,1.58438
-0.438783,1.58404
-0.438658,1.5837
-0.438533,1.58404
-0.438408,1.58438
-0.438283,1.58404
-0.438158,1.58336
-0.438033,1.5837
-0.437908,1.58438
-0.437783,1.58541
-0.437658,1.58438
-0.437533,1.58473
-0.437408,1.58541
-0.437283,1.58507
-0.437158,1.5837
-0.437033,1.58302
-0.436908,1.58267
-0.436783,1.58199
-0.436658,1.58131
-0.436533,1.58199
-0.436408,1.58267
-0.436283,1.58199
-0.436158,1.58165
-0.436033,1.58165
-0.435908,1.58165
-0.435783,1.58131
-0.435658,1.58131
-0.435533,1.58097
-0.435408,1.58165
-0.435283,1.58267
-0.435158,1.58233
-0.435033,1.58302
-0.434908,1.58336
-0.434783,1.58233
-0.434658,1.58267
-0.434533,1.58199
-0.434408,1.58336
-0.434283,1.58438
-0.434158,1.58336
-0.434033,1.58302
-0.433908,1.58438
-0.433783,1.5837
-0.433658,1.58302
-0.433533,1.58267
-0.433408,1.58336
-0.433283,1.58336
-0.433158,1.58267
-0.433033,1.58233
-0.432908,1.58165
-0.432783,1.58199
-0.432658,1.58199
-0.432533,1.58165
-0.432408,1.58233
-0.432283,1.58199
-0.432158,1.58267
-0.432033,1.58233
-0.431908,1.58199
-0.431783,1.58233
-0.431658,1.58165
-0.431533,1.58199
-0.431408,1.58199
-0.431283,1.58165
-0.431158,1.58233
-0.431033,1.58267
-0.430908,1.58267
-0.430783,1.58267
-0.430658,1.58233
-0.430533,1.58302
-0.430408,1.58267
-0.430283,1.58233
-0.430158,1.58233
-0.430033,1.58233
-0.429908,1.58267
-0.429783,1.58302
-0.429658,1.58302
-0.429533,1.58233
-0.429408,1.58165
-0.429283,1.58199
-0.429158,1.58199
-0.429033,1.58165
-0.428908,1.58131
-0.428783,1.58165
-0.428658,1.58131
-0.428533,1.58062
-0.428408,1.58028
-0.428283,1.58062
-0.428158,1.58062
-0.428033,1.58028
-0.427908,1.58062
-0.427783,1.58097
-0.427658,1.58097
-0.427533,1.58062
-0.427408,1.58062
-0.427283,1.58165
-0.427158,1.58199
-0.427033,1.58233
-0.426908,1.58302
-0.426783,1.58336
-0.426658,1.58336
-0.426533,1.58199
-0.426408,1.58165
-0.426283,1.58302
-0.426158,1.58233
-0.426033,1.58233
-0.425908,1.58302
-0.425783,1.58267
-0.425658,1.58233
-0.425533,1.58199
-0.425408,1.58233
-0.425283,1.58233
-0.425158,1.58233
-0.425033,1.58165
-0.424908,1.58199
-0.424783,1.58199
-0.424658,1.58165
-0.424533,1.58097
-0.424408,1.58131
-0.424283,1.58199
-0.424158,1.58233
-0.424033,1.58199
-0.423908,1.58233
-0.423783,1.58233
-0.423658,1.58267
-0.423533,1.58267
-0.423408,1.58302
-0.423283,1.58336
-0.423158,1.58336
-0.423033,1.58302
-0.422908,1.5837
-0.422783,1.5837
-0.422658,1.58438
-0.422533,1.58438
-0.422408,1.58438
-0.422283,1.58507
-0.422158,1.58404
-0.422033,1.58438
-0.421908,1.5837
-0.421783,1.58473
-0.421658,1.58575
-0.421533,1.58473
-0.421408,1.58473
-0.421283,1.58507
-0.421158,1.58507
-0.421033,1.58473
-0.420908,1.58507
-0.420783,1.58438
-0.420658,1.58404
-0.420533,1.58404
-0.420408,1.58404
-0.420283,1.58302
-0.420158,1.58233
-0.420033,1.58165
-0.419908,1.58165
-0.419783,1.58233
-0.419658,1.58267
-0.419533,1.58267
-0.419408,1.58199
-0.419283,1.58233
-0.419158,1.58336
-0.419033,1.58267
-0.418908,1.58267
-0.418783,1.5837
-0.418658,1.58404
-0.418533,1.5837
-0.418408,1.58404
-0.418283,1.58404
-0.418158,1.58404
-0.418033,1.58404
-0.417908,1.58233
-0.417783,1.58165
-0.417658,1.58233
-0.417533,1.58199
-0.417408,1.58131
-0.417283,1.58233
-0.417158,1.58233
-0.417033,1.58199
-0.416908,1.58199
-0.416783,1.58199
-0.416658,1.58199
-0.416533,1.58199
-0.416408,1.58199
-0.416283,1.58199
-0.416158,1.58199
-0.416033,1.58199
-0.415908,1.58165
-0.415783,1.58233
-0.415658,1.58233
-0.415533,1.58233
-0.415408,1.58233
-0.415283,1.58233
-0.415158,1.58267
-0.415033,1.5837
-0.414908,1.58233
-0.414783,1.58302
-0.414658,1.58404
-0.414533,1.5837
-0.414408,1.58336
-0.414283,1.58302
-0.414158,1.58336
-0.414033,1.58302
-0.413908,1.58233
-0.413783,1.58267
-0.413658,1.58302
-0.413533,1.58302
-0.413408,1.58267
-0.413283,1.58233
-0.413158,1.58267
-0.413033,1.58302
-0.412908,1.58267
-0.412783,1.58233
-0.412658,1.58302
-0.412533,1.58404
-0.412408,1.58267
-0.412283,1.58165
-0.412158,1.58233
-0.412033,1.58233
-0.411908,1.58062
-0.411783,1.58028
-0.411658,1.58097
-0.411533,1.58131
-0.411408,1.58131
-0.411283,1.58131
-0.411158,1.58165
-0.411033,1.58165
-0.410908,1.58131
-0.410783,1.58165
-0.410658,1.58131
-0.410533,1.58165
-0.410408,1.58267
-0.410283,1.58233
-0.410158,1.58302
-0.410033,1.5837
-0.409908,1.58336
-0.409783,1.58302
-0.409658,1.58438
-0.409533,1.58438
-0.409408,1.58336
-0.409283,1.58233
-0.409158,1.58199
-0.409033,1.58199
-0.408908,1.58199
-0.408783,1.58131
-0.408658,1.58165
-0.408533,1.58097
-0.408408,1.58131
-0.408283,1.58165
-0.408158,1.58199
-0.408033,1.58233
-0.407908,1.58302
-0.407783,1.58233
-0.407658,1.58165
-0.407533,1.58267
-0.407408,1.58233
-0.407283,1.58165
-0.407158,1.58267
-0.407033,1.5837
-0.406908,1.58302
-0.406783,1.58233
-0.406658,1.58199
-0.406533,1.58336
-0.406408,1.58302
-0.406283,1.58302
-0.406158,1.58302
-0.406033,1.58404
-0.405908,1.5837
-0.405783,1.5837
-0.405658,1.5837
-0.405533,1.58404
-0.405408,1.5837
-0.405283,1.5837
-0.405158,1.58404
-0.405033,1.58438
-0.404908,1.58473
-0.404783,1.58404
-0.404658,1.58473
-0.404533,1.58507
-0.404408,1.58473
-0.404283,1.58438
-0.404158,1.58404
-0.404033,1.58507
-0.403908,1.58438
-0.403783,1.58336
-0.403658,1.5837
-0.403533,1.58302
-0.403408,1.58233
-0.403283,1.58199
-0.403158,1.58165
-0.403033,1.58165
-0.402908,1.58233
-0.402783,1.58165
-0.402658,1.58199
-0.402533,1.58233
-0.402408,1.5837
-0.402283,1.58267
-0.402158,1.5837
-0.402033,1.58438
-0.401908,1.58336
-0.401783,1.58267
-0.401658,1.58233
-0.401533,1.58302
-0.401408,1.5837
-0.401283,1.58233
-0.401158,1.58267
-0.401033,1.58267
-0.400908,1.58302
-0.400783,1.58233
-0.400658,1.58267
-0.400533,1.58267
-0.400408,1.58165
-0.400283,1.58165
-0.400158,1.58131
-0.400033,1.58165
-0.399908,1.58165
-0.399783,1.58165
-0.399658,1.58165
-0.399533,1.58233
-0.399408,1.58165
-0.399283,1.58097
-0.399158,1.58131
-0.399033,1.58165
-0.398908,1.58233
-0.398783,1.58199
-0.398658,1.58199
-0.398533,1.58165
-0.398408,1.58165
-0.398283,1.58165
-0.398158,1.58165
-0.398033,1.58233
-0.397908,1.58302
-0.397783,1.58336
-0.397658,1.58233
-0.397533,1.58165
-0.397408,1.58233
-0.397283,1.58302
-0.397158,1.58199
-0.397033,1.5837
-0.396908,1.58336
-0.396783,1.58336
-0.396658,1.58233
-0.396533,1.58233
-0.396408,1.58336
-0.396283,1.58233
-0.396158,1.58302
-0.396033,1.58302
-0.395908,1.58233
-0.395783,1.58233
-0.395658,1.58302
-0.395533,1.58336
-0.395408,1.58199
-0.395283,1.58233
-0.395158,1.58131
-0.395033,1.58131
-0.394908,1.58131
-0.394783,1.58097
-0.394658,1.57994
-0.394533,1.58131
-0.394408,1.58233
-0.394283,1.58199
-0.394158,1.58165
-0.394033,1.58131
-0.393908,1.58233
-0.393783,1.58199
-0.393658,1.58199
-0.393533,1.58267
-0.393408,1.58267
-0.393283,1.58267
-0.393158,1.58233
-0.393033,1.58199
-0.392908,1.58165
-0.392783,1.58233
-0.392658,1.58233
-0.392533,1.58165
-0.392408,1.58233
-0.392283,1.58267
-0.392158,1.58165
-0.392033,1.58199
-0.391908,1.5837
-0.391783,1.58336
-0.391658,1.58267
-0.391533,1.58199
-0.391408,1.58233
-0.391283,1.58302
-0.391158,1.58267
-0.391033,1.58267
-0.390908,1.58267
-0.390783,1.58199
-0.390658,1.58165
-0.390533,1.58165
-0.390408,1.58131
-0.390283,1.58199
-0.390158,1.58165
-0.390033,1.58165
-0.389908,1.58267
-0.389783,1.58336
-0.389658,1.58302
-0.389533,1.58267
-0.389408,1.5837
-0.389283,1.58302
-0.389158,1.58302
-0.389033,1.58267
-0.388908,1.5837
-0.388783,1.58473
-0.388658,1.5837
-0.388533,1.5837
-0.388408,1.5837
-0.388283,1.58438
-0.388158,1.58438
-0.388033,1.58473
-0.387908,1.58473
-0.387783,1.58438
-0.387658,1.58438
-0.387533,1.58404
-0.387408,1.58438
-0.387283,1.58507
-0.387158,1.58404
-0.387033,1.58336
-0.386908,1.58302
-0.386783,1.58199
-0.386658,1.58233
-0.386533,1.58199
-0.386408,1.58199
-0.386283,1.58302
-0.386158,1.58233
-0.386033,1.58233
-0.385908,1.58233
-0.385783,1.58131
-0.385658,1.58131
-0.385533,1.58233
-0.385408,1.58336
-0.385283,1.5837
-0.385158,1.58438
-0.385033,1.58336
-0.384908,1.58267
-0.384783,1.58233
-0.384658,1.58267
-0.384533,1.58165
-0.384408,1.58233
-0.384283,1.58233
-0.384158,1.58233
-0.384033,1.58199
-0.383908,1.58199
-0.383783,1.58267
-0.383658,1.58302
-0.383533,1.58233
-0.383408,1.58302
-0.383283,1.58302
-0.383158,1.58267
-0.383033,1.58199
-0.382908,1.58199
-0.382783,1.58233
-0.382658,1.58199
-0.382533,1.58199
-0.382408,1.58165
-0.382283,1.58165
-0.382158,1.58233
-0.382033,1.58131
-0.381908,1.58267
-0.381783,1.5837
-0.381658,1.58404
-0.381533,1.58302
-0.381408,1.58199
-0.381283,1.58267
-0.381158,1.58336
-0.381033,1.58302
-0.380908,1.58336
-0.380783,1.58267
-0.380658,1.58233
-0.380533,1.58199
-0.380408,1.58165
-0.380283,1.58097
-0.380158,1.58131
-0.380033,1.58131
-0.379908,1.58131
-0.379783,1.58199
-0.379658,1.58302
-0.379533,1.58233
-0.379408,1.58165
-0.379283,1.58267
-0.379158,1.58267
-0.379033,1.58199
-0.378908,1.58199
-0.378783,1.58199
-0.378658,1.58165
-0.378533,1.58097
-0.378408,1.58131
-0.378283,1.58062
-0.378158,1.58062
-0.378033,1.58097
-0.377908,1.58097
-0.377783,1.58062
-0.377658,1.58062
-0.377533,1.58165
-0.377408,1.58097
-0.377283,1.58131
-0.377158,1.58267
-0.377033,1.58302
-0.376908,1.58267
-0.376783,1.58438
-0.376658,1.5837
-0.376533,1.58336
-0.376408,1.58199
-0.376283,1.58233
-0.376158,1.58302
-0.376033,1.58233
-0.375908,1.58199
-0.375783,1.58165
-0.375658,1.58165
