GR-XX02/GearV2Main/CordDet/OrgData/thinCord-C-13.csv

#Digilent WaveForms Oscilloscope Acquisition
#Device Name: Discovery2
#Serial Number: SN:210321A41D55
#Date Time: 2020-05-22 13:50:03.416
#Sample rate: 8000Hz
#Samples: 8192
#Trigger: Source: Channel 1 Type: Edge Condition: Falling Level: 2.75 V Hyst.: Auto HoldOff: 0 s
#Channel 1: Range: 500 mV/div Offset: -1.5 V
#Power Supplies: ON
#Positive Supply: ON
#Voltage: 3.3 V
#Negative Supply: OFF
#Voltage: -1 V

Time (s),Channel 1 (V)
-0.51195,2.96628
-0.511825,2.96594
-0.5117,2.9656
-0.511575,2.96594
-0.51145,2.96628
-0.511325,2.96662
-0.5112,2.96662
-0.511075,2.96662
-0.51095,2.96731
-0.510825,2.96696
-0.5107,2.96628
-0.510575,2.96696
-0.51045,2.96628
-0.510325,2.96731
-0.5102,2.96731
-0.510075,2.96765
-0.50995,2.96799
-0.509825,2.96731
-0.5097,2.96696
-0.509575,2.96731
-0.50945,2.96765
-0.509325,2.96799
-0.5092,2.96867
-0.509075,2.96799
-0.50895,2.96867
-0.508825,2.96867
-0.5087,2.96867
-0.508575,2.96902
-0.50845,2.96867
-0.508325,2.96902
-0.5082,2.96902
-0.508075,2.96867
-0.50795,2.96936
-0.507825,2.96867
-0.5077,2.96867
-0.507575,2.96936
-0.50745,2.96867
-0.507325,2.96936
-0.5072,2.9697
-0.507075,2.9697
-0.50695,2.97004
-0.506825,2.9697
-0.5067,2.9697
-0.506575,2.97004
-0.50645,2.96936
-0.506325,2.97004
-0.5062,2.97038
-0.506075,2.97004
-0.50595,2.97038
-0.505825,2.97038
-0.5057,2.97072
-0.505575,2.97072
-0.50545,2.97072
-0.505325,2.97072
-0.5052,2.97141
-0.505075,2.97107
-0.50495,2.97107
-0.504825,2.97209
-0.5047,2.97107
-0.504575,2.97107
-0.50445,2.97141
-0.504325,2.97107
-0.5042,2.97175
-0.504075,2.97175
-0.50395,2.97175
-0.503825,2.97175
-0.5037,2.97107
-0.503575,2.97141
-0.50345,2.97107
-0.503325,2.97072
-0.5032,2.97072
-0.503075,2.97072
-0.50295,2.97107
-0.502825,2.97107
-0.5027,2.97072
-0.502575,2.97004
-0.50245,2.96867
-0.502325,2.96867
-0.5022,2.96902
-0.502075,2.9697
-0.50195,2.96936
-0.501825,2.96936
-0.5017,2.96936
-0.501575,2.96833
-0.50145,2.96696
-0.501325,2.96696
-0.5012,2.96731
-0.501075,2.96833
-0.50095,2.96765
-0.500825,2.96731
-0.5007,2.96731
-0.500575,2.96662
-0.50045,2.96662
-0.500325,2.96662
-0.5002,2.96628
-0.500075,2.96628
-0.49995,2.96628
-0.499825,2.9656
-0.4997,2.96594
-0.499575,2.9656
-0.49945,2.96491
-0.499325,2.96526
-0.4992,2.96423
-0.499075,2.96423
-0.49895,2.96491
-0.498825,2.96491
-0.4987,2.96491
-0.498575,2.96491
-0.49845,2.96491
-0.498325,2.96457
-0.4982,2.96491
-0.498075,2.96457
-0.49795,2.96457
-0.497825,2.96491
-0.4977,2.96457
-0.497575,2.96491
-0.49745,2.96526
-0.497325,2.96457
-0.4972,2.96491
-0.497075,2.96491
-0.49695,2.96491
-0.496825,2.96526
-0.4967,2.9656
-0.496575,2.9656
-0.49645,2.9656
-0.496325,2.96491
-0.4962,2.96526
-0.496075,2.9656
-0.49595,2.96526
-0.495825,2.9656
-0.4957,2.96594
-0.495575,2.96594
-0.49545,2.96594
-0.495325,2.96628
-0.4952,2.96594
-0.495075,2.96662
-0.49495,2.96594
-0.494825,2.96594
-0.4947,2.96662
-0.494575,2.96662
-0.49445,2.96662
-0.494325,2.96662
-0.4942,2.96594
-0.494075,2.96628
-0.49395,2.96696
-0.493825,2.96628
-0.4937,2.96696
-0.493575,2.96696
-0.49345,2.96662
-0.493325,2.96628
-0.4932,2.96628
-0.493075,2.96696
-0.49295,2.96731
-0.492825,2.96696
-0.4927,2.96731
-0.492575,2.96765
-0.49245,2.96731
-0.492325,2.96731
-0.4922,2.96731
-0.492075,2.96731
-0.49195,2.96799
-0.491825,2.96731
-0.4917,2.96731
-0.491575,2.96765
-0.49145,2.96696
-0.491325,2.96765
-0.4912,2.96731
-0.491075,2.96696
-0.49095,2.96696
-0.490825,2.96662
-0.4907,2.96628
-0.490575,2.96696
-0.49045,2.96696
-0.490325,2.96696
-0.4902,2.96731
-0.490075,2.96696
-0.48995,2.96696
-0.489825,2.96731
-0.4897,2.96662
-0.489575,2.96696
-0.48945,2.96696
-0.489325,2.96662
-0.4892,2.96696
-0.489075,2.96662
-0.48895,2.96662
-0.488825,2.96662
-0.4887,2.96628
-0.488575,2.96628
-0.48845,2.96696
-0.488325,2.96628
-0.4882,2.96628
-0.488075,2.96628
-0.48795,2.96594
-0.487825,2.96628
-0.4877,2.96594
-0.487575,2.96594
-0.48745,2.96628
-0.487325,2.96662
-0.4872,2.96628
-0.487075,2.96628
-0.48695,2.9656
-0.486825,2.96594
-0.4867,2.96594
-0.486575,2.9656
-0.48645,2.96662
-0.486325,2.9656
-0.4862,2.9656
-0.486075,2.9656
-0.48595,2.96321
-0.485825,2.96457
-0.4857,2.96491
-0.485575,2.96526
-0.48545,2.9656
-0.485325,2.96526
-0.4852,2.96491
-0.485075,2.96355
-0.48495,2.96389
-0.484825,2.96457
-0.4847,2.96526
-0.484575,2.96491
-0.48445,2.96526
-0.484325,2.96457
-0.4842,2.96491
-0.484075,2.96389
-0.48395,2.96355
-0.483825,2.96457
-0.4837,2.96457
-0.483575,2.96457
-0.48345,2.96526
-0.483325,2.96457
-0.4832,2.96491
-0.483075,2.96491
-0.48295,2.96457
-0.482825,2.96491
-0.4827,2.96423
-0.482575,2.96423
-0.48245,2.96491
-0.482325,2.96423
-0.4822,2.9656
-0.482075,2.96594
-0.48195,2.96594
-0.481825,2.96662
-0.4817,2.96594
-0.481575,2.96594
-0.48145,2.96628
-0.481325,2.96628
-0.4812,2.96628
-0.481075,2.96696
-0.48095,2.96662
-0.480825,2.96662
-0.4807,2.96696
-0.480575,2.96628
-0.48045,2.96696
-0.480325,2.96731
-0.4802,2.96628
-0.480075,2.96696
-0.47995,2.96662
-0.479825,2.96628
-0.4797,2.96662
-0.479575,2.96628
-0.47945,2.96662
-0.479325,2.96628
-0.4792,2.96594
-0.479075,2.96594
-0.47895,2.96594
-0.478825,2.96526
-0.4787,2.96594
-0.478575,2.9656
-0.47845,2.9656
-0.478325,2.96526
-0.4782,2.96491
-0.478075,2.96526
-0.47795,2.96491
-0.477825,2.96457
-0.4777,2.96457
-0.477575,2.96457
-0.47745,2.96457
-0.477325,2.96457
-0.4772,2.96457
-0.477075,2.96491
-0.47695,2.96423
-0.476825,2.96355
-0.4767,2.96457
-0.476575,2.96423
-0.47645,2.96423
-0.476325,2.96491
-0.4762,2.96457
-0.476075,2.96423
-0.47595,2.96457
-0.475825,2.96389
-0.4757,2.96457
-0.475575,2.96457
-0.47545,2.96457
-0.475325,2.96457
-0.4752,2.96423
-0.475075,2.96389
-0.47495,2.96457
-0.474825,2.96389
-0.4747,2.96423
-0.474575,2.96389
-0.47445,2.96355
-0.474325,2.96423
-0.4742,2.96355
-0.474075,2.96355
-0.47395,2.96389
-0.473825,2.96389
-0.4737,2.96389
-0.473575,2.96389
-0.47345,2.96355
-0.473325,2.96389
-0.4732,2.96389
-0.473075,2.96321
-0.47295,2.96321
-0.472825,2.96321
-0.4727,2.96286
-0.472575,2.96286
-0.47245,2.96218
-0.472325,2.96218
-0.4722,2.96252
-0.472075,2.96184
-0.47195,2.96218
-0.471825,2.9615
-0.4717,2.96115
-0.471575,2.9615
-0.47145,2.96115
-0.471325,2.96115
-0.4712,2.96115
-0.471075,2.96081
-0.47095,2.96081
-0.470825,2.96081
-0.4707,2.96013
-0.470575,2.96013
-0.47045,2.96013
-0.470325,2.95945
-0.4702,2.96047
-0.470075,2.95945
-0.46995,2.95945
-0.469825,2.95945
-0.4697,2.95808
-0.469575,2.95774
-0.46945,2.95842
-0.469325,2.95808
-0.4692,2.9591
-0.469075,2.95842
-0.46895,2.95842
-0.468825,2.95842
-0.4687,2.95671
-0.468575,2.95705
-0.46845,2.95739
-0.468325,2.95774
-0.4682,2.95842
-0.468075,2.95774
-0.46795,2.95774
-0.467825,2.95671
-0.4677,2.95569
-0.467575,2.95637
-0.46745,2.95705
-0.467325,2.95671
-0.4672,2.95705
-0.467075,2.95705
-0.46695,2.95637
-0.466825,2.95705
-0.4667,2.95671
-0.466575,2.95637
-0.46645,2.95705
-0.466325,2.95671
-0.4662,2.95671
-0.466075,2.95705
-0.46595,2.95671
-0.465825,2.95603
-0.4657,2.95671
-0.465575,2.95671
-0.46545,2.95705
-0.465325,2.95774
-0.4652,2.95739
-0.465075,2.95774
-0.46495,2.95808
-0.464825,2.95774
-0.4647,2.95774
-0.464575,2.95808
-0.46445,2.95808
-0.464325,2.95808
-0.4642,2.95876
-0.464075,2.95842
-0.46395,2.9591
-0.463825,2.95876
-0.4637,2.95876
-0.463575,2.9591
-0.46345,2.95876
-0.463325,2.9591
-0.4632,2.9591
-0.463075,2.95876
-0.46295,2.9591
-0.462825,2.9591
-0.4627,2.9591
-0.462575,2.95945
-0.46245,2.95979
-0.462325,2.9591
-0.4622,2.95945
-0.462075,2.9591
-0.46195,2.96013
-0.461825,2.96013
-0.4617,2.95945
-0.461575,2.95979
-0.46145,2.95979
-0.461325,2.96013
-0.4612,2.96047
-0.461075,2.96013
-0.46095,2.96081
-0.460825,2.96081
-0.4607,2.96047
-0.460575,2.96047
-0.46045,2.96081
-0.460325,2.96081
-0.4602,2.9615
-0.460075,2.96115
-0.45995,2.9615
-0.459825,2.9615
-0.4597,2.9615
-0.459575,2.96081
-0.45945,2.96081
-0.459325,2.9615
-0.4592,2.9615
-0.459075,2.96184
-0.45895,2.96218
-0.458825,2.96218
-0.4587,2.96218
-0.458575,2.96286
-0.45845,2.96218
-0.458325,2.96252
-0.4582,2.96286
-0.458075,2.96286
-0.45795,2.96286
-0.457825,2.96286
-0.4577,2.96286
-0.457575,2.96286
-0.45745,2.96321
-0.457325,2.96286
-0.4572,2.96389
-0.457075,2.96355
-0.45695,2.96355
-0.456825,2.96355
-0.4567,2.96286
-0.456575,2.96355
-0.45645,2.96355
-0.456325,2.96321
-0.4562,2.96389
-0.456075,2.96355
-0.45595,2.96355
-0.455825,2.96355
-0.4557,2.96286
-0.455575,2.96355
-0.45545,2.96286
-0.455325,2.96286
-0.4552,2.96355
-0.455075,2.96286
-0.45495,2.96321
-0.454825,2.96321
-0.4547,2.96321
-0.454575,2.96286
-0.45445,2.96252
-0.454325,2.96252
-0.4542,2.96286
-0.454075,2.96252
-0.45395,2.96252
-0.453825,2.96286
-0.4537,2.96321
-0.453575,2.96218
-0.45345,2.96286
-0.453325,2.96218
-0.4532,2.96218
-0.453075,2.96252
-0.45295,2.96218
-0.452825,2.96252
-0.4527,2.96286
-0.452575,2.96218
-0.45245,2.96252
-0.452325,2.96218
-0.4522,2.96081
-0.452075,2.96218
-0.45195,2.96218
-0.451825,2.96286
-0.4517,2.96286
-0.451575,2.96252
-0.45145,2.96218
-0.451325,2.96115
-0.4512,2.9615
-0.451075,2.96218
-0.45095,2.96252
-0.450825,2.96218
-0.4507,2.96252
-0.450575,2.96218
-0.45045,2.96184
-0.450325,2.96218
-0.4502,2.96184
-0.450075,2.96218
-0.44995,2.96218
-0.449825,2.96184
-0.4497,2.96218
-0.449575,2.96252
-0.44945,2.9615
-0.449325,2.96184
-0.4492,2.9615
-0.449075,2.9615
-0.44895,2.96218
-0.448825,2.96252
-0.4487,2.96321
-0.448575,2.96286
-0.44845,2.96252
-0.448325,2.96321
-0.4482,2.96286
-0.448075,2.96321
-0.44795,2.96355
-0.447825,2.96286
-0.4477,2.96389
-0.447575,2.96321
-0.44745,2.96355
-0.447325,2.96355
-0.4472,2.96321
-0.447075,2.96389
-0.44695,2.96321
-0.446825,2.96286
-0.4467,2.96389
-0.446575,2.96355
-0.44645,2.96389
-0.446325,2.96355
-0.4462,2.96355
-0.446075,2.96389
-0.44595,2.96355
-0.445825,2.96389
-0.4457,2.96389
-0.445575,2.96355
-0.44545,2.96423
-0.445325,2.96423
-0.4452,2.96355
-0.445075,2.96389
-0.44495,2.96355
-0.444825,2.96355
-0.4447,2.96389
-0.444575,2.96389
-0.44445,2.96389
-0.444325,2.96389
-0.4442,2.96355
-0.444075,2.96286
-0.44395,2.96286
-0.443825,2.96321
-0.4437,2.96355
-0.443575,2.96321
-0.44345,2.96321
-0.443325,2.96355
-0.4432,2.96286
-0.443075,2.96321
-0.44295,2.96184
-0.442825,2.96218
-0.4427,2.96321
-0.442575,2.96286
-0.44245,2.96286
-0.442325,2.96321
-0.4422,2.96252
-0.442075,2.96252
-0.44195,2.96286
-0.441825,2.96218
-0.4417,2.96286
-0.441575,2.96252
-0.44145,2.96218
-0.441325,2.96252
-0.4412,2.96218
-0.441075,2.96252
-0.44095,2.96218
-0.440825,2.9615
-0.4407,2.9615
-0.440575,2.96184
-0.44045,2.96184
-0.440325,2.96218
-0.4402,2.9615
-0.440075,2.96184
-0.43995,2.96115
-0.439825,2.96115
-0.4397,2.9615
-0.439575,2.96081
-0.43945,2.96115
-0.439325,2.96047
-0.4392,2.96013
-0.439075,2.96047
-0.43895,2.95979
-0.438825,2.95979
-0.4387,2.96013
-0.438575,2.9591
-0.43845,2.9591
-0.438325,2.95876
-0.4382,2.9591
-0.438075,2.95876
-0.43795,2.95808
-0.437825,2.95842
-0.4377,2.95808
-0.437575,2.95774
-0.43745,2.95842
-0.437325,2.95808
-0.4372,2.95808
-0.437075,2.95808
-0.43695,2.95808
-0.436825,2.95739
-0.4367,2.95739
-0.436575,2.95739
-0.43645,2.95705
-0.436325,2.95739
-0.4362,2.95739
-0.436075,2.95705
-0.43595,2.95739
-0.435825,2.95603
-0.4357,2.95603
-0.435575,2.95637
-0.43545,2.95671
-0.435325,2.95808
-0.4352,2.95739
-0.435075,2.95739
-0.43495,2.95774
-0.434825,2.95671
-0.4347,2.95603
-0.434575,2.95739
-0.43445,2.95705
-0.434325,2.95808
-0.4342,2.95808
-0.434075,2.95774
-0.43395,2.95842
-0.433825,2.95808
-0.4337,2.95808
-0.433575,2.95842
-0.43345,2.95808
-0.433325,2.95842
-0.4332,2.95876
-0.433075,2.95842
-0.43295,2.95808
-0.432825,2.95876
-0.4327,2.95739
-0.432575,2.95774
-0.43245,2.95808
-0.432325,2.95774
-0.4322,2.95876
-0.432075,2.9591
-0.43195,2.95842
-0.431825,2.9591
-0.4317,2.95876
-0.431575,2.95842
-0.43145,2.95876
-0.431325,2.95842
-0.4312,2.95876
-0.431075,2.95876
-0.43095,2.95842
-0.430825,2.95842
-0.4307,2.95808
-0.430575,2.95808
-0.43045,2.95876
-0.430325,2.95842
-0.4302,2.95808
-0.430075,2.95842
-0.42995,2.95808
-0.429825,2.95876
-0.4297,2.95876
-0.429575,2.95842
-0.42945,2.95876
-0.429325,2.95876
-0.4292,2.95876
-0.429075,2.95876
-0.42895,2.95876
-0.428825,2.95876
-0.4287,2.95945
-0.428575,2.95876
-0.42845,2.9591
-0.428325,2.9591
-0.4282,2.9591
-0.428075,2.95945
-0.42795,2.9591
-0.427825,2.9591
-0.4277,2.95979
-0.427575,2.9591
-0.42745,2.95979
-0.427325,2.95945
-0.4272,2.95945
-0.427075,2.9591
-0.42695,2.95876
-0.426825,2.95945
-0.4267,2.95945
-0.426575,2.9591
-0.42645,2.95979
-0.426325,2.95945
-0.4262,2.95945
-0.426075,2.95876
-0.42595,2.95876
-0.425825,2.95945
-0.4257,2.95979
-0.425575,2.95945
-0.42545,2.96013
-0.425325,2.95979
-0.4252,2.9591
-0.425075,2.95979
-0.42495,2.9591
-0.424825,2.95945
-0.4247,2.9591
-0.424575,2.95876
-0.42445,2.9591
-0.424325,2.9591
-0.4242,2.95876
-0.424075,2.95876
-0.42395,2.95876
-0.423825,2.9591
-0.4237,2.95945
-0.423575,2.95876
-0.42345,2.9591
-0.423325,2.95876
-0.4232,2.95842
-0.423075,2.9591
-0.42295,2.95842
-0.422825,2.95808
-0.4227,2.95876
-0.422575,2.95808
-0.42245,2.95808
-0.422325,2.95842
-0.4222,2.95808
-0.422075,2.95842
-0.42195,2.95808
-0.421825,2.95808
-0.4217,2.95808
-0.421575,2.95808
-0.42145,2.95774
-0.421325,2.95842
-0.4212,2.95842
-0.421075,2.95808
-0.42095,2.95808
-0.420825,2.95739
-0.4207,2.95774
-0.420575,2.95808
-0.42045,2.95774
-0.420325,2.95876
-0.4202,2.95808
-0.420075,2.95808
-0.41995,2.95842
-0.419825,2.95739
-0.4197,2.95705
-0.419575,2.95739
-0.41945,2.95739
-0.419325,2.95842
-0.4192,2.95842
-0.419075,2.95808
-0.41895,2.95876
-0.418825,2.95808
-0.4187,2.95637
-0.418575,2.95774
-0.41845,2.95808
-0.418325,2.95842
-0.4182,2.95876
-0.418075,2.95876
-0.41795,2.95876
-0.417825,2.95876
-0.4177,2.95705
-0.417575,2.95774
-0.41745,2.95808
-0.417325,2.95842
-0.4172,2.95876
-0.417075,2.95876
-0.41695,2.9591
-0.416825,2.9591
-0.4167,2.95876
-0.416575,2.95876
-0.41645,2.9591
-0.416325,2.95842
-0.4162,2.9591
-0.416075,2.9591
-0.41595,2.95842
-0.415825,2.95876
-0.4157,2.95842
-0.415575,2.9591
-0.41545,2.96047
-0.415325,2.95979
-0.4152,2.95979
-0.415075,2.96047
-0.41495,2.96047
-0.414825,2.96047
-0.4147,2.96081
-0.414575,2.96081
-0.41445,2.96115
-0.414325,2.96115
-0.4142,2.96081
-0.414075,2.9615
-0.41395,2.96115
-0.413825,2.9615
-0.4137,2.96218
-0.413575,2.96115
-0.41345,2.96081
-0.413325,2.96115
-0.4132,2.96115
-0.413075,2.96115
-0.41295,2.96115
-0.412825,2.96115
-0.4127,2.9615
-0.412575,2.9615
-0.41245,2.96115
-0.412325,2.9615
-0.4122,2.9615
-0.412075,2.9615
-0.41195,2.96184
-0.411825,2.96184
-0.4117,2.9615
-0.411575,2.96218
-0.41145,2.96184
-0.411325,2.96184
-0.4112,2.96218
-0.411075,2.96184
-0.41095,2.96252
-0.410825,2.96184
-0.4107,2.96218
-0.410575,2.96218
-0.41045,2.96218
-0.410325,2.96252
-0.4102,2.96252
-0.410075,2.96252
-0.40995,2.96286
-0.409825,2.96286
-0.4097,2.96286
-0.409575,2.96355
-0.40945,2.96252
-0.409325,2.96321
-0.4092,2.96423
-0.409075,2.96423
-0.40895,2.96491
-0.408825,2.96526
-0.4087,2.96526
-0.408575,2.96594
-0.40845,2.96594
-0.408325,2.96594
-0.4082,2.96662
-0.408075,2.96662
-0.40795,2.96731
-0.407825,2.96765
-0.4077,2.96731
-0.407575,2.96833
-0.40745,2.96799
-0.407325,2.96799
-0.4072,2.96867
-0.407075,2.96867
-0.40695,2.96867
-0.406825,2.96936
-0.4067,2.96867
-0.406575,2.9697
-0.40645,2.96936
-0.406325,2.9697
-0.4062,2.97004
-0.406075,2.9697
-0.40595,2.9697
-0.405825,2.96936
-0.4057,2.9697
-0.405575,2.9697
-0.40545,2.96936
-0.405325,2.96902
-0.4052,2.97038
-0.405075,2.96902
-0.40495,2.96936
-0.404825,2.9697
-0.4047,2.96902
-0.404575,2.96936
-0.40445,2.9697
-0.404325,2.97004
-0.4042,2.97004
-0.404075,2.96936
-0.40395,2.96936
-0.403825,2.96936
-0.4037,2.96902
-0.403575,2.96936
-0.40345,2.96936
-0.403325,2.96902
-0.4032,2.96936
-0.403075,2.96765
-0.40295,2.96833
-0.402825,2.96799
-0.4027,2.96799
-0.402575,2.96936
-0.40245,2.96867
-0.402325,2.96867
-0.4022,2.96902
-0.402075,2.96696
-0.40195,2.96765
-0.401825,2.96867
-0.4017,2.96833
-0.401575,2.96867
-0.40145,2.96833
-0.401325,2.96833
-0.4012,2.96731
-0.401075,2.96731
-0.40095,2.96765
-0.400825,2.96833
-0.4007,2.96765
-0.400575,2.96799
-0.40045,2.96799
-0.400325,2.96765
-0.4002,2.96833
-0.400075,2.96799
-0.39995,2.96765
-0.399825,2.96833
-0.3997,2.96731
-0.399575,2.96799
-0.39945,2.96799
-0.399325,2.96696
-0.3992,2.96731
-0.399075,2.96731
-0.39895,2.96799
-0.398825,2.96833
-0.3987,2.96833
-0.398575,2.96833
-0.39845,2.96902
-0.398325,2.96833
-0.3982,2.96867
-0.398075,2.96867
-0.39795,2.96867
-0.397825,2.96936
-0.3977,2.96833
-0.397575,2.96867
-0.39745,2.96902
-0.397325,2.96902
-0.3972,2.96902
-0.397075,2.9697
-0.39695,2.96902
-0.396825,2.9697
-0.3967,2.97004
-0.396575,2.9697
-0.39645,2.97004
-0.396325,2.97038
-0.3962,2.97004
-0.396075,2.97038
-0.39595,2.97004
-0.395825,2.97038
-0.3957,2.97072
-0.395575,2.97072
-0.39545,2.97107
-0.395325,2.97141
-0.3952,2.97107
-0.395075,2.97175
-0.39495,2.97175
-0.394825,2.97175
-0.3947,2.97278
-0.394575,2.97243
-0.39445,2.97278
-0.394325,2.97312
-0.3942,2.97312
-0.394075,2.9738
-0.39395,2.9738
-0.393825,2.97312
-0.3937,2.97448
-0.393575,2.9738
-0.39345,2.97483
-0.393325,2.97517
-0.3932,2.97517
-0.393075,2.97585
-0.39295,2.97551
-0.392825,2.97517
-0.3927,2.97483
-0.392575,2.97585
-0.39245,2.97619
-0.392325,2.97688
-0.3922,2.97688
-0.392075,2.97688
-0.39195,2.97756
-0.391825,2.97722
-0.3917,2.97756
-0.391575,2.9779
-0.39145,2.97756
-0.391325,2.97824
-0.3912,2.97824
-0.391075,2.97824
-0.39095,2.97893
-0.390825,2.97824
-0.3907,2.97893
-0.390575,2.97927
-0.39045,2.97961
-0.390325,2.97995
-0.3902,2.97961
-0.390075,2.97961
-0.38995,2.97995
-0.389825,2.97961
-0.3897,2.97995
-0.389575,2.97961
-0.38945,2.97961
-0.389325,2.9803
-0.3892,2.97995
-0.389075,2.97995
-0.38895,2.98064
-0.388825,2.97995
-0.3887,2.97995
-0.388575,2.98064
-0.38845,2.97995
-0.388325,2.9803
-0.3882,2.9803
-0.388075,2.97995
-0.38795,2.98098
-0.387825,2.9803
-0.3877,2.97995
-0.387575,2.98064
-0.38745,2.97995
-0.387325,2.9803
-0.3872,2.9803
-0.387075,2.9803
-0.38695,2.9803
-0.386825,2.97995
-0.3867,2.97961
-0.386575,2.97961
-0.38645,2.97927
-0.386325,2.97961
-0.3862,2.97927
-0.386075,2.97961
-0.38595,2.97995
-0.385825,2.97961
-0.3857,2.97927
-0.385575,2.97859
-0.38545,2.97859
-0.385325,2.97927
-0.3852,2.97961
-0.385075,2.97961
-0.38495,2.97961
-0.384825,2.97961
-0.3847,2.97893
-0.384575,2.9779
-0.38445,2.97688
-0.384325,2.97688
-0.3842,2.9779
-0.384075,2.97722
-0.38395,2.97756
-0.383825,2.97756
-0.3837,2.97722
-0.383575,2.97756
-0.38345,2.97756
-0.383325,2.97722
-0.3832,2.97722
-0.383075,2.97722
-0.38295,2.97722
-0.382825,2.97722
-0.3827,2.97654
-0.382575,2.97654
-0.38245,2.97585
-0.382325,2.97619
-0.3822,2.97722
-0.382075,2.97722
-0.38195,2.97722
-0.381825,2.97756
-0.3817,2.97688
-0.381575,2.97688
-0.38145,2.97722
-0.381325,2.97654
-0.3812,2.97688
-0.381075,2.97688
-0.38095,2.97654
-0.380825,2.97722
-0.3807,2.97654
-0.380575,2.97654
-0.38045,2.97619
-0.380325,2.97619
-0.3802,2.97619
-0.380075,2.97585
-0.37995,2.97551
-0.379825,2.97551
-0.3797,2.97483
-0.379575,2.97551
-0.37945,2.97448
-0.379325,2.97483
-0.3792,2.97517
-0.379075,2.97483
-0.37895,2.97517
-0.378825,2.97414
-0.3787,2.97414
-0.378575,2.97448
-0.37845,2.9738
-0.378325,2.97448
-0.3782,2.9738
-0.378075,2.97346
-0.37795,2.9738
-0.377825,2.97175
-0.3777,2.97243
-0.377575,2.97209
-0.37745,2.97175
-0.377325,2.97243
-0.3772,2.97209
-0.377075,2.97175
-0.37695,2.97175
-0.376825,2.97038
-0.3767,2.97107
-0.376575,2.97072
-0.37645,2.97004
-0.376325,2.97072
-0.3762,2.97004
-0.376075,2.97004
-0.37595,2.97004
-0.375825,2.96833
-0.3757,2.96902
-0.375575,2.96867
-0.37545,2.96833
-0.375325,2.96799
-0.3752,2.96765
-0.375075,2.96765
-0.37495,2.96765
-0.374825,2.96662
-0.3747,2.96696
-0.374575,2.96628
-0.37445,2.96628
-0.374325,2.96628
-0.3742,2.96594
-0.374075,2.96526
-0.37395,2.9656
-0.373825,2.9656
-0.3737,2.9656
-0.373575,2.9656
-0.37345,2.96491
-0.373325,2.96491
-0.3732,2.96491
-0.373075,2.96423
-0.37295,2.96423
-0.372825,2.96389
-0.3727,2.96286
-0.372575,2.96321
-0.37245,2.96218
-0.372325,2.96252
-0.3722,2.96218
-0.372075,2.9615
-0.37195,2.9615
-0.371825,2.96081
-0.3717,2.96013
-0.371575,2.96013
-0.37145,2.95945
-0.371325,2.95945
-0.3712,2.96013
-0.371075,2.95945
-0.37095,2.96047
-0.370825,2.95979
-0.3707,2.9591
-0.370575,2.95945
-0.37045,2.95876
-0.370325,2.95842
-0.3702,2.9591
-0.370075,2.95945
-0.36995,2.9591
-0.369825,2.9591
-0.3697,2.95808
-0.369575,2.95774
-0.36945,2.95671
