GR-XX02/GearV2Main/CordDet/OrgData/thinCord-C-16_3MFoilTape.csv

#Digilent WaveForms Oscilloscope Acquisition
#Device Name: Discovery2
#Serial Number: SN:210321A41D55
#Date Time: 2020-05-25 15:12:28.515
#Sample rate: 8000Hz
#Samples: 8192
#Trigger: Source: Channel 1 Type: Edge Condition: Either Level: 2 V Hyst.: Auto HoldOff: 0 s
#Channel 1: Range: 500 mV/div Offset: -1.5 V
#Power Supplies: ON
#Positive Supply: ON
#Voltage: 3.3 V
#Negative Supply: OFF
#Voltage: -1 V

Time (s),Channel 1 (V)
-0.511971,2.81521
-0.511846,2.81486
-0.511721,2.81486
-0.511596,2.81521
-0.511471,2.81452
-0.511346,2.81486
-0.511221,2.81418
-0.511096,2.81418
-0.510971,2.81418
-0.510846,2.81418
-0.510721,2.81521
-0.510596,2.81418
-0.510471,2.81452
-0.510346,2.81452
-0.510221,2.81418
-0.510096,2.81486
-0.509971,2.81418
-0.509846,2.81452
-0.509721,2.81452
-0.509596,2.81452
-0.509471,2.81521
-0.509346,2.81452
-0.509221,2.81486
-0.509096,2.81486
-0.508971,2.81521
-0.508846,2.81521
-0.508721,2.81486
-0.508596,2.81623
-0.508471,2.81555
-0.508346,2.81589
-0.508221,2.81589
-0.508096,2.81555
-0.507971,2.81623
-0.507846,2.81521
-0.507721,2.81589
-0.507596,2.81555
-0.507471,2.81555
-0.507346,2.81623
-0.507221,2.81589
-0.507096,2.81657
-0.506971,2.81623
-0.506846,2.81657
-0.506721,2.81691
-0.506596,2.81657
-0.506471,2.81691
-0.506346,2.81623
-0.506221,2.81623
-0.506096,2.81623
-0.505971,2.81691
-0.505846,2.81691
-0.505721,2.81691
-0.505596,2.81691
-0.505471,2.81657
-0.505346,2.81726
-0.505221,2.81657
-0.505096,2.81691
-0.504971,2.81726
-0.504846,2.81691
-0.504721,2.81726
-0.504596,2.81657
-0.504471,2.81726
-0.504346,2.81828
-0.504221,2.81862
-0.504096,2.81931
-0.503971,2.81931
-0.503846,2.81897
-0.503721,2.81931
-0.503596,2.81965
-0.503471,2.81999
-0.503346,2.81965
-0.503221,2.82033
-0.503096,2.81999
-0.502971,2.81999
-0.502846,2.81965
-0.502721,2.81897
-0.502596,2.81931
-0.502471,2.81931
-0.502346,2.82033
-0.502221,2.81999
-0.502096,2.81999
-0.501971,2.82102
-0.501846,2.82102
-0.501721,2.82136
-0.501596,2.82067
-0.501471,2.82102
-0.501346,2.82136
-0.501221,2.82136
-0.501096,2.82204
-0.500971,2.82102
-0.500846,2.82204
-0.500721,2.8217
-0.500596,2.8217
-0.500471,2.82238
-0.500346,2.8217
-0.500221,2.82238
-0.500096,2.82204
-0.499971,2.82238
-0.499846,2.82204
-0.499721,2.8217
-0.499596,2.82204
-0.499471,2.82204
-0.499346,2.82238
-0.499221,2.82238
-0.499096,2.8217
-0.498971,2.82204
-0.498846,2.82204
-0.498721,2.82238
-0.498596,2.82273
-0.498471,2.8217
-0.498346,2.82238
-0.498221,2.8217
-0.498096,2.82238
-0.497971,2.8217
-0.497846,2.8217
-0.497721,2.82238
-0.497596,2.82204
-0.497471,2.82273
-0.497346,2.82204
-0.497221,2.8217
-0.497096,2.82204
-0.496971,2.82204
-0.496846,2.82204
-0.496721,2.82204
-0.496596,2.82204
-0.496471,2.82204
-0.496346,2.8217
-0.496221,2.82238
-0.496096,2.82238
-0.495971,2.82307
-0.495846,2.82341
-0.495721,2.82307
-0.495596,2.82375
-0.495471,2.82341
-0.495346,2.82375
-0.495221,2.82409
-0.495096,2.82307
-0.494971,2.82375
-0.494846,2.82307
-0.494721,2.82273
-0.494596,2.8217
-0.494471,2.82136
-0.494346,2.8217
-0.494221,2.82067
-0.494096,2.82136
-0.493971,2.82067
-0.493846,2.82067
-0.493721,2.82067
-0.493596,2.82033
-0.493471,2.82102
-0.493346,2.81999
-0.493221,2.82033
-0.493096,2.81999
-0.492971,2.81999
-0.492846,2.82033
-0.492721,2.81965
-0.492596,2.81999
-0.492471,2.81897
-0.492346,2.81931
-0.492221,2.81828
-0.492096,2.81828
-0.491971,2.81862
-0.491846,2.81828
-0.491721,2.81897
-0.491596,2.81828
-0.491471,2.81794
-0.491346,2.81794
-0.491221,2.8176
-0.491096,2.81794
-0.490971,2.8176
-0.490846,2.81726
-0.490721,2.81691
-0.490596,2.81691
-0.490471,2.8176
-0.490346,2.81691
-0.490221,2.81726
-0.490096,2.81726
-0.489971,2.81691
-0.489846,2.8176
-0.489721,2.81691
-0.489596,2.8176
-0.489471,2.81691
-0.489346,2.81657
-0.489221,2.81726
-0.489096,2.81657
-0.488971,2.81691
-0.488846,2.81657
-0.488721,2.81623
-0.488596,2.81657
-0.488471,2.81623
-0.488346,2.81657
-0.488221,2.81623
-0.488096,2.81555
-0.487971,2.81623
-0.487846,2.81589
-0.487721,2.81726
-0.487596,2.8176
-0.487471,2.81828
-0.487346,2.81862
-0.487221,2.81828
-0.487096,2.81897
-0.486971,2.81794
-0.486846,2.81828
-0.486721,2.81862
-0.486596,2.81828
-0.486471,2.81828
-0.486346,2.81794
-0.486221,2.8176
-0.486096,2.8176
-0.485971,2.81726
-0.485846,2.81794
-0.485721,2.81794
-0.485596,2.81897
-0.485471,2.81794
-0.485346,2.81794
-0.485221,2.81862
-0.485096,2.81794
-0.484971,2.81862
-0.484846,2.81828
-0.484721,2.81862
-0.484596,2.81862
-0.484471,2.81794
-0.484346,2.81828
-0.484221,2.81794
-0.484096,2.81828
-0.483971,2.81862
-0.483846,2.81828
-0.483721,2.81862
-0.483596,2.8176
-0.483471,2.8176
-0.483346,2.81726
-0.483221,2.81691
-0.483096,2.81726
-0.482971,2.81657
-0.482846,2.81657
-0.482721,2.81555
-0.482596,2.81589
-0.482471,2.81521
-0.482346,2.81521
-0.482221,2.81555
-0.482096,2.81486
-0.481971,2.81521
-0.481846,2.81418
-0.481721,2.81384
-0.481596,2.8135
-0.481471,2.8135
-0.481346,2.81315
-0.481221,2.81247
-0.481096,2.81247
-0.480971,2.81213
-0.480846,2.81179
-0.480721,2.81179
-0.480596,2.8111
-0.480471,2.81145
-0.480346,2.81042
-0.480221,2.81042
-0.480096,2.81042
-0.479971,2.8094
-0.479846,2.80974
-0.479721,2.80974
-0.479596,2.8094
-0.479471,2.80974
-0.479346,2.81008
-0.479221,2.81076
-0.479096,2.80974
-0.478971,2.80974
-0.478846,2.80974
-0.478721,2.80905
-0.478596,2.8094
-0.478471,2.8094
-0.478346,2.80837
-0.478221,2.80871
-0.478096,2.80769
-0.477971,2.80734
-0.477846,2.807
-0.477721,2.80598
-0.477596,2.80632
-0.477471,2.80564
-0.477346,2.80598
-0.477221,2.80598
-0.477096,2.80598
-0.476971,2.80666
-0.476846,2.80598
-0.476721,2.80598
-0.476596,2.80564
-0.476471,2.80529
-0.476346,2.80564
-0.476221,2.80564
-0.476096,2.80632
-0.475971,2.80564
-0.475846,2.80564
-0.475721,2.80564
-0.475596,2.80529
-0.475471,2.80598
-0.475346,2.80564
-0.475221,2.80598
-0.475096,2.80564
-0.474971,2.80564
-0.474846,2.80598
-0.474721,2.80564
-0.474596,2.80632
-0.474471,2.80598
-0.474346,2.80598
-0.474221,2.80632
-0.474096,2.80598
-0.473971,2.80666
-0.473846,2.80632
-0.473721,2.80666
-0.473596,2.80666
-0.473471,2.807
-0.473346,2.807
-0.473221,2.80632
-0.473096,2.80666
-0.472971,2.80632
-0.472846,2.80734
-0.472721,2.80666
-0.472596,2.807
-0.472471,2.807
-0.472346,2.80666
-0.472221,2.80734
-0.472096,2.807
-0.471971,2.80734
-0.471846,2.807
-0.471721,2.80666
-0.471596,2.80734
-0.471471,2.80666
-0.471346,2.807
-0.471221,2.80666
-0.471096,2.807
-0.470971,2.80871
-0.470846,2.80803
-0.470721,2.80837
-0.470596,2.80769
-0.470471,2.80837
-0.470346,2.80871
-0.470221,2.80837
-0.470096,2.80905
-0.469971,2.80837
-0.469846,2.8094
-0.469721,2.80803
-0.469596,2.80769
-0.469471,2.80837
-0.469346,2.80769
-0.469221,2.80837
-0.469096,2.80837
-0.468971,2.80837
-0.468846,2.80837
-0.468721,2.80871
-0.468596,2.80871
-0.468471,2.80769
-0.468346,2.80837
-0.468221,2.80803
-0.468096,2.80837
-0.467971,2.80871
-0.467846,2.80837
-0.467721,2.80905
-0.467596,2.80905
-0.467471,2.80905
-0.467346,2.8094
-0.467221,2.80905
-0.467096,2.80905
-0.466971,2.80871
-0.466846,2.80871
-0.466721,2.80974
-0.466596,2.8094
-0.466471,2.81008
-0.466346,2.8094
-0.466221,2.81008
-0.466096,2.80974
-0.465971,2.8094
-0.465846,2.81008
-0.465721,2.81008
-0.465596,2.81076
-0.465471,2.81076
-0.465346,2.81008
-0.465221,2.81042
-0.465096,2.81042
-0.464971,2.81076
-0.464846,2.81042
-0.464721,2.81042
-0.464596,2.81076
-0.464471,2.81008
-0.464346,2.81042
-0.464221,2.80974
-0.464096,2.81008
-0.463971,2.81042
-0.463846,2.81008
-0.463721,2.81042
-0.463596,2.81008
-0.463471,2.81042
-0.463346,2.81042
-0.463221,2.81042
-0.463096,2.8111
-0.462971,2.81042
-0.462846,2.8111
-0.462721,2.8111
-0.462596,2.81145
-0.462471,2.81179
-0.462346,2.8111
-0.462221,2.81145
-0.462096,2.81076
-0.461971,2.81042
-0.461846,2.81076
-0.461721,2.81042
-0.461596,2.81076
-0.461471,2.81042
-0.461346,2.81008
-0.461221,2.80974
-0.461096,2.80837
-0.460971,2.80871
-0.460846,2.80769
-0.460721,2.80769
-0.460596,2.80734
-0.460471,2.80666
-0.460346,2.80632
-0.460221,2.80598
-0.460096,2.80529
-0.459971,2.80495
-0.459846,2.80427
-0.459721,2.80427
-0.459596,2.8029
-0.459471,2.80256
-0.459346,2.80222
-0.459221,2.80153
-0.459096,2.80119
-0.458971,2.80085
-0.458846,2.80119
-0.458721,2.80051
-0.458596,2.79982
-0.458471,2.80017
-0.458346,2.79914
-0.458221,2.79948
-0.458096,2.79846
-0.457971,2.79846
-0.457846,2.79846
-0.457721,2.79812
-0.457596,2.79846
-0.457471,2.79709
-0.457346,2.79743
-0.457221,2.79777
-0.457096,2.79743
-0.456971,2.79777
-0.456846,2.79675
-0.456721,2.79743
-0.456596,2.79709
-0.456471,2.79709
-0.456346,2.79709
-0.456221,2.79641
-0.456096,2.79641
-0.455971,2.79606
-0.455846,2.79641
-0.455721,2.79641
-0.455596,2.79572
-0.455471,2.79572
-0.455346,2.79538
-0.455221,2.79572
-0.455096,2.79504
-0.454971,2.79436
-0.454846,2.7947
-0.454721,2.79401
-0.454596,2.79401
-0.454471,2.79367
-0.454346,2.79436
-0.454221,2.79504
-0.454096,2.79401
-0.453971,2.7947
-0.453846,2.79367
-0.453721,2.79367
-0.453596,2.7947
-0.453471,2.79401
-0.453346,2.79436
-0.453221,2.79333
-0.453096,2.79333
-0.452971,2.79231
-0.452846,2.79196
-0.452721,2.79299
-0.452596,2.79128
-0.452471,2.79196
-0.452346,2.79196
-0.452221,2.79162
-0.452096,2.79231
-0.451971,2.79128
-0.451846,2.79162
-0.451721,2.79128
-0.451596,2.79162
-0.451471,2.79196
-0.451346,2.79094
-0.451221,2.79162
-0.451096,2.7906
-0.450971,2.79094
-0.450846,2.79094
-0.450721,2.7906
-0.450596,2.7906
-0.450471,2.78957
-0.450346,2.7906
-0.450221,2.78957
-0.450096,2.78991
-0.449971,2.78923
-0.449846,2.78855
-0.449721,2.78889
-0.449596,2.78786
-0.449471,2.7882
-0.449346,2.78786
-0.449221,2.78786
-0.449096,2.78786
-0.448971,2.78718
-0.448846,2.78752
-0.448721,2.78684
-0.448596,2.78684
-0.448471,2.78684
-0.448346,2.78649
-0.448221,2.78718
-0.448096,2.78615
-0.447971,2.78649
-0.447846,2.78615
-0.447721,2.78547
-0.447596,2.78615
-0.447471,2.78581
-0.447346,2.78649
-0.447221,2.78581
-0.447096,2.78581
-0.446971,2.78649
-0.446846,2.78581
-0.446721,2.78615
-0.446596,2.78581
-0.446471,2.78718
-0.446346,2.78684
-0.446221,2.78752
-0.446096,2.78786
-0.445971,2.7882
-0.445846,2.78855
-0.445721,2.78855
-0.445596,2.78923
-0.445471,2.78889
-0.445346,2.78855
-0.445221,2.78889
-0.445096,2.78889
-0.444971,2.78957
-0.444846,2.78923
-0.444721,2.78889
-0.444596,2.78889
-0.444471,2.78855
-0.444346,2.78923
-0.444221,2.78923
-0.444096,2.78991
-0.443971,2.78991
-0.443846,2.78991
-0.443721,2.79094
-0.443596,2.79128
-0.443471,2.79196
-0.443346,2.79231
-0.443221,2.79231
-0.443096,2.79299
-0.442971,2.79265
-0.442846,2.79299
-0.442721,2.79401
-0.442596,2.79367
-0.442471,2.79504
-0.442346,2.79436
-0.442221,2.79538
-0.442096,2.79606
-0.441971,2.79606
-0.441846,2.79709
-0.441721,2.79709
-0.441596,2.79777
-0.441471,2.79777
-0.441346,2.79812
-0.441221,2.7988
-0.441096,2.79846
-0.440971,2.79948
-0.440846,2.79948
-0.440721,2.79982
-0.440596,2.80051
-0.440471,2.80119
-0.440346,2.80222
-0.440221,2.80188
-0.440096,2.80256
-0.439971,2.8029
-0.439846,2.80324
-0.439721,2.80461
-0.439596,2.80427
-0.439471,2.80495
-0.439346,2.80427
-0.439221,2.80529
-0.439096,2.80598
-0.438971,2.80598
-0.438846,2.807
-0.438721,2.807
-0.438596,2.80734
-0.438471,2.80837
-0.438346,2.80803
-0.438221,2.80905
-0.438096,2.80905
-0.437971,2.8094
-0.437846,2.81076
-0.437721,2.81145
-0.437596,2.81247
-0.437471,2.81247
-0.437346,2.81315
-0.437221,2.8135
-0.437096,2.8135
-0.436971,2.81452
-0.436846,2.81384
-0.436721,2.81486
-0.436596,2.81486
-0.436471,2.81555
-0.436346,2.81589
-0.436221,2.81555
-0.436096,2.81623
-0.435971,2.81623
-0.435846,2.81691
-0.435721,2.81794
-0.435596,2.81691
-0.435471,2.81828
-0.435346,2.81794
-0.435221,2.81862
-0.435096,2.81931
-0.434971,2.81965
-0.434846,2.82033
-0.434721,2.82033
-0.434596,2.82102
-0.434471,2.82102
-0.434346,2.82136
-0.434221,2.82273
-0.434096,2.82273
-0.433971,2.82341
-0.433846,2.82375
-0.433721,2.82443
-0.433596,2.82546
-0.433471,2.82512
-0.433346,2.82614
-0.433221,2.82614
-0.433096,2.82649
-0.432971,2.82649
-0.432846,2.82649
-0.432721,2.82717
-0.432596,2.82751
-0.432471,2.82854
-0.432346,2.82819
-0.432221,2.82854
-0.432096,2.82956
-0.431971,2.82922
-0.431846,2.8299
-0.431721,2.83024
-0.431596,2.83024
-0.431471,2.83024
-0.431346,2.83024
-0.431221,2.83127
-0.431096,2.83093
-0.430971,2.83161
-0.430846,2.83161
-0.430721,2.83127
-0.430596,2.83195
-0.430471,2.83161
-0.430346,2.8323
-0.430221,2.83195
-0.430096,2.8323
-0.429971,2.83264
-0.429846,2.8323
-0.429721,2.83264
-0.429596,2.8323
-0.429471,2.8323
-0.429346,2.83366
-0.429221,2.83298
-0.429096,2.83332
-0.428971,2.83366
-0.428846,2.83366
-0.428721,2.83366
-0.428596,2.83332
-0.428471,2.83366
-0.428346,2.83298
-0.428221,2.83298
-0.428096,2.83298
-0.427971,2.83161
-0.427846,2.83195
-0.427721,2.83059
-0.427596,2.83093
-0.427471,2.83093
-0.427346,2.83093
-0.427221,2.83161
-0.427096,2.83059
-0.426971,2.83093
-0.426846,2.8299
-0.426721,2.83024
-0.426596,2.82956
-0.426471,2.82956
-0.426346,2.8299
-0.426221,2.82888
-0.426096,2.82922
-0.425971,2.82888
-0.425846,2.82888
-0.425721,2.82922
-0.425596,2.82785
-0.425471,2.82819
-0.425346,2.82751
-0.425221,2.82785
-0.425096,2.82819
-0.424971,2.82785
-0.424846,2.82854
-0.424721,2.82751
-0.424596,2.82785
-0.424471,2.82819
-0.424346,2.82751
-0.424221,2.82751
-0.424096,2.82614
-0.423971,2.82649
-0.423846,2.82683
-0.423721,2.82614
-0.423596,2.82683
-0.423471,2.82614
-0.423346,2.82614
-0.423221,2.8258
-0.423096,2.8258
-0.422971,2.8258
-0.422846,2.82478
-0.422721,2.8258
-0.422596,2.82512
-0.422471,2.82443
-0.422346,2.82409
-0.422221,2.82307
-0.422096,2.82375
-0.421971,2.82273
-0.421846,2.82307
-0.421721,2.82238
-0.421596,2.82204
-0.421471,2.8217
-0.421346,2.82067
-0.421221,2.82102
-0.421096,2.82102
-0.420971,2.8217
-0.420846,2.82204
-0.420721,2.82136
-0.420596,2.82136
-0.420471,2.82067
-0.420346,2.82102
-0.420221,2.82067
-0.420096,2.81999
-0.419971,2.82033
-0.419846,2.81965
-0.419721,2.81999
-0.419596,2.81931
-0.419471,2.81897
-0.419346,2.81965
-0.419221,2.81897
-0.419096,2.81965
-0.418971,2.81965
-0.418846,2.81931
-0.418721,2.81965
-0.418596,2.81931
-0.418471,2.82033
-0.418346,2.82033
-0.418221,2.81965
-0.418096,2.82033
-0.417971,2.81999
-0.417846,2.82102
-0.417721,2.82067
-0.417596,2.82067
-0.417471,2.82067
-0.417346,2.82033
-0.417221,2.82136
-0.417096,2.82102
-0.416971,2.82136
-0.416846,2.8217
-0.416721,2.82102
-0.416596,2.82204
-0.416471,2.82136
-0.416346,2.8217
-0.416221,2.82136
-0.416096,2.8217
-0.415971,2.82204
-0.415846,2.82136
-0.415721,2.82136
-0.415596,2.82204
-0.415471,2.82136
-0.415346,2.82204
-0.415221,2.82136
-0.415096,2.8217
-0.414971,2.82136
-0.414846,2.82067
-0.414721,2.82067
-0.414596,2.81999
-0.414471,2.82067
-0.414346,2.81999
-0.414221,2.82033
-0.414096,2.81999
-0.413971,2.81931
-0.413846,2.81931
-0.413721,2.81794
-0.413596,2.8176
-0.413471,2.8176
-0.413346,2.81691
-0.413221,2.81726
-0.413096,2.81623
-0.412971,2.81589
-0.412846,2.81486
-0.412721,2.81452
-0.412596,2.81452
-0.412471,2.8135
-0.412346,2.8135
-0.412221,2.81281
-0.412096,2.81179
-0.411971,2.81179
-0.411846,2.81076
-0.411721,2.81042
-0.411596,2.8094
-0.411471,2.8094
-0.411346,2.80803
-0.411221,2.80666
-0.411096,2.80632
-0.410971,2.80495
-0.410846,2.80529
-0.410721,2.80461
-0.410596,2.80393
-0.410471,2.80427
-0.410346,2.80324
-0.410221,2.80358
-0.410096,2.80358
-0.409971,2.80358
-0.409846,2.80324
-0.409721,2.80222
-0.409596,2.8029
-0.409471,2.80256
-0.409346,2.80222
-0.409221,2.80256
-0.409096,2.80188
-0.408971,2.80256
-0.408846,2.80256
-0.408721,2.8029
-0.408596,2.80222
-0.408471,2.80222
-0.408346,2.8029
-0.408221,2.80256
-0.408096,2.80256
-0.407971,2.80222
-0.407846,2.80256
-0.407721,2.8029
-0.407596,2.80188
-0.407471,2.80222
-0.407346,2.80222
-0.407221,2.80256
-0.407096,2.8029
-0.406971,2.80222
-0.406846,2.80256
-0.406721,2.80188
-0.406596,2.80256
-0.406471,2.80324
-0.406346,2.80256
-0.406221,2.8029
-0.406096,2.80222
-0.405971,2.80256
-0.405846,2.80188
-0.405721,2.80222
-0.405596,2.80222
-0.405471,2.80188
-0.405346,2.80188
-0.405221,2.80153
-0.405096,2.80188
-0.404971,2.80188
-0.404846,2.80153
-0.404721,2.80188
-0.404596,2.80119
-0.404471,2.80153
-0.404346,2.80188
-0.404221,2.80222
-0.404096,2.80222
-0.403971,2.80153
-0.403846,2.80222
-0.403721,2.80188
-0.403596,2.80188
-0.403471,2.80153
-0.403346,2.80119
-0.403221,2.80153
-0.403096,2.80119
-0.402971,2.80051
-0.402846,2.80017
-0.402721,2.79948
-0.402596,2.80051
-0.402471,2.79914
-0.402346,2.79948
-0.402221,2.79914
-0.402096,2.79914
-0.401971,2.79982
-0.401846,2.79914
-0.401721,2.79982
-0.401596,2.79948
-0.401471,2.79914
-0.401346,2.79982
-0.401221,2.79914
-0.401096,2.79948
-0.400971,2.79948
-0.400846,2.79948
-0.400721,2.79948
-0.400596,2.79914
-0.400471,2.79948
-0.400346,2.7988
-0.400221,2.79914
-0.400096,2.7988
-0.399971,2.79846
-0.399846,2.79846
-0.399721,2.79812
-0.399596,2.79812
-0.399471,2.79743
-0.399346,2.79675
-0.399221,2.79709
-0.399096,2.79641
-0.398971,2.79709
-0.398846,2.79709
-0.398721,2.79709
-0.398596,2.79743
-0.398471,2.79641
-0.398346,2.79641
-0.398221,2.79572
-0.398096,2.79606
-0.397971,2.79572
-0.397846,2.79504
-0.397721,2.79606
-0.397596,2.79572
-0.397471,2.79606
-0.397346,2.79572
-0.397221,2.79538
-0.397096,2.79606
-0.396971,2.79572
-0.396846,2.79606
-0.396721,2.79606
-0.396596,2.79572
-0.396471,2.79675
-0.396346,2.79606
-0.396221,2.79709
-0.396096,2.79743
-0.395971,2.79846
-0.395846,2.7988
-0.395721,2.79846
-0.395596,2.79914
-0.395471,2.7988
-0.395346,2.79948
-0.395221,2.79914
-0.395096,2.7988
-0.394971,2.79914
-0.394846,2.79914
-0.394721,2.79948
-0.394596,2.79846
-0.394471,2.79846
-0.394346,2.79846
-0.394221,2.79846
-0.394096,2.7988
-0.393971,2.79914
-0.393846,2.7988
-0.393721,2.79914
-0.393596,2.7988
-0.393471,2.79948
-0.393346,2.79948
-0.393221,2.79982
-0.393096,2.79948
-0.392971,2.79948
-0.392846,2.80017
-0.392721,2.80017
-0.392596,2.80085
-0.392471,2.80051
-0.392346,2.80051
-0.392221,2.80085
-0.392096,2.80085
-0.391971,2.80119
-0.391846,2.80119
-0.391721,2.80153
-0.391596,2.80188
-0.391471,2.80222
-0.391346,2.8029
-0.391221,2.80222
-0.391096,2.80256
-0.390971,2.80222
-0.390846,2.8029
-0.390721,2.8029
-0.390596,2.80324
-0.390471,2.80427
-0.390346,2.80358
-0.390221,2.80461
-0.390096,2.80427
-0.389971,2.80529
-0.389846,2.80495
-0.389721,2.80495
-0.389596,2.80598
-0.389471,2.80529
-0.389346,2.80632
-0.389221,2.80564
-0.389096,2.80632
-0.388971,2.80666
-0.388846,2.80632
-0.388721,2.807
-0.388596,2.80632
-0.388471,2.80666
-0.388346,2.80666
-0.388221,2.80666
-0.388096,2.807
-0.387971,2.807
-0.387846,2.80734
-0.387721,2.80803
-0.387596,2.80837
-0.387471,2.8094
-0.387346,2.80905
-0.387221,2.80905
-0.387096,2.80905
-0.386971,2.80905
-0.386846,2.81008
-0.386721,2.80905
-0.386596,2.80905
-0.386471,2.8094
-0.386346,2.80905
-0.386221,2.80905
-0.386096,2.80837
-0.385971,2.80974
-0.385846,2.8094
-0.385721,2.8094
-0.385596,2.8094
-0.385471,2.80905
-0.385346,2.80974
-0.385221,2.8094
-0.385096,2.80974
-0.384971,2.81008
-0.384846,2.8094
-0.384721,2.81008
-0.384596,2.80974
-0.384471,2.81042
-0.384346,2.81042
-0.384221,2.81042
-0.384096,2.8111
-0.383971,2.81042
-0.383846,2.81076
-0.383721,2.81042
-0.383596,2.81076
-0.383471,2.81076
-0.383346,2.81042
-0.383221,2.8111
-0.383096,2.81076
-0.382971,2.81076
-0.382846,2.81076
-0.382721,2.81008
-0.382596,2.81042
-0.382471,2.80974
-0.382346,2.81042
-0.382221,2.81042
-0.382096,2.81042
-0.381971,2.81076
-0.381846,2.81042
-0.381721,2.8111
-0.381596,2.81076
-0.381471,2.81008
-0.381346,2.81008
-0.381221,2.8094
-0.381096,2.81008
-0.380971,2.80974
-0.380846,2.80974
-0.380721,2.80974
-0.380596,2.80974
-0.380471,2.81042
-0.380346,2.80974
-0.380221,2.81042
-0.380096,2.81008
-0.379971,2.81008
-0.379846,2.81042
-0.379721,2.81008
-0.379596,2.81076
-0.379471,2.81008
-0.379346,2.81008
-0.379221,2.81076
-0.379096,2.81042
-0.378971,2.8111
-0.378846,2.81076
-0.378721,2.81145
-0.378596,2.81145
-0.378471,2.8111
-0.378346,2.8111
-0.378221,2.81042
-0.378096,2.81076
-0.377971,2.81076
-0.377846,2.81042
-0.377721,2.81042
-0.377596,2.80974
-0.377471,2.81042
-0.377346,2.81076
-0.377221,2.81042
-0.377096,2.81042
-0.376971,2.81008
-0.376846,2.81042
-0.376721,2.81076
-0.376596,2.81042
-0.376471,2.8111
-0.376346,2.8111
-0.376221,2.81145
-0.376096,2.81179
-0.375971,2.81145
-0.375846,2.81179
-0.375721,2.81145
-0.375596,2.81179
-0.375471,2.81179
-0.375346,2.81213
