GR-XX02/GearV2Main/CordDet/OrgData/thinCord-A-03.csv

#Digilent WaveForms Oscilloscope Acquisition
#Device Name: Discovery2
#Serial Number: SN:210321A41D55
#Date Time: 2020-05-19 17:04:53.182
#Sample rate: 8000Hz
#Samples: 8192
#Trigger: Source: Channel 1 Type: Edge Condition: Falling Level: 2 V Hyst.: Auto HoldOff: 0 s
#Channel 1: Range: 500 mV/div Offset: -1.5 V
#Power Supplies: ON
#Positive Supply: ON
#Voltage: 3.3 V
#Negative Supply: OFF
#Voltage: -1 V

Time (s),Channel 1 (V)
-0.511938,2.57595
-0.511813,2.57526
-0.511688,2.5756
-0.511563,2.5756
-0.511437,2.5756
-0.511313,2.5756
-0.511188,2.5756
-0.511063,2.57526
-0.510938,2.57595
-0.510813,2.57526
-0.510688,2.5756
-0.510563,2.5756
-0.510437,2.5756
-0.510313,2.5756
-0.510188,2.5756
-0.510063,2.57526
-0.509938,2.57595
-0.509813,2.5756
-0.509688,2.5756
-0.509563,2.5756
-0.509437,2.57526
-0.509313,2.57595
-0.509188,2.57629
-0.509063,2.57595
-0.508938,2.57629
-0.508813,2.57663
-0.508688,2.57595
-0.508563,2.57629
-0.508437,2.57629
-0.508313,2.57595
-0.508188,2.57595
-0.508063,2.5756
-0.507938,2.5756
-0.507812,2.57595
-0.507688,2.5756
-0.507563,2.5756
-0.507437,2.5756
-0.507313,2.5756
-0.507188,2.57595
-0.507063,2.57595
-0.506938,2.57526
-0.506812,2.5756
-0.506688,2.5756
-0.506563,2.57526
-0.506437,2.5756
-0.506313,2.57526
-0.506188,2.57492
-0.506063,2.5756
-0.505938,2.5756
-0.505812,2.5756
-0.505688,2.5756
-0.505563,2.57526
-0.505437,2.57595
-0.505313,2.57526
-0.505188,2.57492
-0.505063,2.57492
-0.504938,2.57458
-0.504812,2.57458
-0.504688,2.57458
-0.504563,2.57458
-0.504437,2.57492
-0.504313,2.57458
-0.504188,2.57458
-0.504063,2.57526
-0.503938,2.57526
-0.503812,2.57526
-0.503688,2.57526
-0.503563,2.57492
-0.503437,2.57492
-0.503313,2.57458
-0.503188,2.57424
-0.503063,2.57458
-0.502938,2.57424
-0.502812,2.57389
-0.502688,2.57424
-0.502563,2.57424
-0.502437,2.57424
-0.502313,2.57458
-0.502188,2.57424
-0.502063,2.57458
-0.501938,2.57458
-0.501812,2.57458
-0.501688,2.57492
-0.501563,2.57492
-0.501437,2.57458
-0.501313,2.57458
-0.501188,2.57458
-0.501063,2.57458
-0.500938,2.57458
-0.500812,2.57458
-0.500688,2.57424
-0.500563,2.57458
-0.500437,2.57424
-0.500313,2.57458
-0.500188,2.57424
-0.500063,2.57355
-0.499937,2.57424
-0.499812,2.57389
-0.499688,2.57389
-0.499562,2.57389
-0.499437,2.57389
-0.499312,2.57389
-0.499188,2.57389
-0.499062,2.57389
-0.498937,2.57424
-0.498812,2.57389
-0.498688,2.57321
-0.498562,2.57355
-0.498437,2.57321
-0.498312,2.57321
-0.498188,2.57321
-0.498062,2.57253
-0.497937,2.57253
-0.497812,2.57253
-0.497688,2.57219
-0.497562,2.57253
-0.497437,2.57287
-0.497312,2.57253
-0.497188,2.57287
-0.497062,2.57321
-0.496937,2.57287
-0.496812,2.57321
-0.496688,2.57287
-0.496562,2.57355
-0.496437,2.57389
-0.496312,2.57389
-0.496188,2.57424
-0.496062,2.57458
-0.495937,2.57458
-0.495812,2.57526
-0.495688,2.57526
-0.495562,2.57526
-0.495437,2.57595
-0.495312,2.5756
-0.495188,2.5756
-0.495062,2.57595
-0.494937,2.5756
-0.494812,2.57629
-0.494688,2.57663
-0.494562,2.57629
-0.494437,2.57697
-0.494312,2.57663
-0.494188,2.57731
-0.494062,2.578
-0.493937,2.57765
-0.493812,2.57765
-0.493688,2.578
-0.493562,2.578
-0.493437,2.57834
-0.493312,2.578
-0.493188,2.57765
-0.493062,2.578
-0.492937,2.57731
-0.492812,2.57765
-0.492688,2.57765
-0.492562,2.57697
-0.492437,2.57765
-0.492312,2.57765
-0.492188,2.578
-0.492062,2.57834
-0.491937,2.57765
-0.491812,2.578
-0.491687,2.578
-0.491562,2.578
-0.491437,2.57868
-0.491312,2.57868
-0.491187,2.57902
-0.491062,2.57868
-0.490937,2.57834
-0.490812,2.57834
-0.490687,2.57868
-0.490562,2.57834
-0.490437,2.57902
-0.490312,2.57868
-0.490187,2.57902
-0.490062,2.57868
-0.489937,2.57834
-0.489812,2.57868
-0.489687,2.57902
-0.489562,2.57868
-0.489437,2.57902
-0.489312,2.57902
-0.489187,2.57868
-0.489062,2.57936
-0.488937,2.57936
-0.488812,2.57902
-0.488687,2.57936
-0.488562,2.57936
-0.488437,2.57936
-0.488312,2.57936
-0.488187,2.57902
-0.488062,2.57936
-0.487937,2.57936
-0.487812,2.57936
-0.487687,2.57902
-0.487562,2.57936
-0.487437,2.57868
-0.487312,2.57868
-0.487187,2.57868
-0.487062,2.57868
-0.486937,2.57902
-0.486812,2.57936
-0.486687,2.57902
-0.486562,2.57936
-0.486437,2.57902
-0.486312,2.57902
-0.486187,2.57902
-0.486062,2.57868
-0.485937,2.57936
-0.485812,2.57902
-0.485687,2.57834
-0.485562,2.57868
-0.485437,2.57834
-0.485312,2.57834
-0.485187,2.57834
-0.485062,2.57765
-0.484937,2.578
-0.484812,2.57765
-0.484687,2.57731
-0.484562,2.57765
-0.484437,2.57765
-0.484312,2.57731
-0.484187,2.57765
-0.484063,2.57697
-0.483937,2.57663
-0.483812,2.57731
-0.483687,2.57731
-0.483563,2.57731
-0.483437,2.57697
-0.483312,2.57697
-0.483187,2.57731
-0.483063,2.57697
-0.482937,2.57663
-0.482812,2.57629
-0.482687,2.57595
-0.482563,2.5756
-0.482437,2.57595
-0.482312,2.57526
-0.482187,2.57492
-0.482063,2.57492
-0.481937,2.57492
-0.481812,2.57492
-0.481687,2.57458
-0.481563,2.57424
-0.481437,2.57492
-0.481312,2.57424
-0.481187,2.57424
-0.481063,2.57424
-0.480937,2.57424
-0.480812,2.57389
-0.480687,2.57424
-0.480563,2.57355
-0.480437,2.57389
-0.480312,2.57355
-0.480187,2.57355
-0.480063,2.57321
-0.479937,2.57287
-0.479812,2.57253
-0.479687,2.57253
-0.479563,2.57219
-0.479437,2.57219
-0.479312,2.57287
-0.479187,2.57253
-0.479063,2.57253
-0.478937,2.57321
-0.478812,2.57287
-0.478687,2.57355
-0.478563,2.57355
-0.478437,2.57355
-0.478312,2.57355
-0.478187,2.57321
-0.478063,2.57355
-0.477937,2.57321
-0.477812,2.57287
-0.477687,2.57321
-0.477563,2.57287
-0.477437,2.57253
-0.477312,2.57287
-0.477187,2.57184
-0.477063,2.57184
-0.476937,2.57219
-0.476812,2.57219
-0.476687,2.57253
-0.476562,2.57219
-0.476437,2.57219
-0.476312,2.57219
-0.476187,2.57219
-0.476062,2.57219
-0.475937,2.57253
-0.475812,2.57219
-0.475687,2.57253
-0.475562,2.57219
-0.475437,2.57219
-0.475312,2.57253
-0.475187,2.57184
-0.475062,2.57184
-0.474937,2.57184
-0.474812,2.57184
-0.474687,2.57219
-0.474562,2.57184
-0.474437,2.57184
-0.474312,2.57184
-0.474187,2.5715
-0.474062,2.57219
-0.473937,2.57184
-0.473812,2.57184
-0.473687,2.57184
-0.473562,2.57184
-0.473437,2.57219
-0.473312,2.57253
-0.473187,2.57184
-0.473062,2.57219
-0.472937,2.57184
-0.472812,2.5715
-0.472687,2.57184
-0.472562,2.57082
-0.472437,2.57048
-0.472312,2.57048
-0.472187,2.57013
-0.472062,2.57048
-0.471937,2.56979
-0.471812,2.56979
-0.471687,2.56979
-0.471562,2.56979
-0.471437,2.56979
-0.471312,2.56945
-0.471187,2.56911
-0.471062,2.56945
-0.470937,2.56911
-0.470812,2.56877
-0.470687,2.56877
-0.470562,2.56843
-0.470437,2.56843
-0.470312,2.56808
-0.470187,2.56774
-0.470062,2.5674
-0.469937,2.56706
-0.469812,2.56672
-0.469687,2.56706
-0.469562,2.56638
-0.469437,2.56569
-0.469312,2.56569
-0.469187,2.56535
-0.469062,2.56535
-0.468937,2.56569
-0.468812,2.56501
-0.468687,2.56535
-0.468562,2.56535
-0.468438,2.56535
-0.468312,2.56501
-0.468187,2.56467
-0.468062,2.56501
-0.467938,2.56501
-0.467812,2.56432
-0.467687,2.56398
-0.467562,2.56364
-0.467438,2.56364
-0.467312,2.56296
-0.467187,2.56227
-0.467062,2.56227
-0.466938,2.56227
-0.466812,2.56227
-0.466687,2.56227
-0.466562,2.56227
-0.466438,2.56227
-0.466312,2.56193
-0.466187,2.56193
-0.466062,2.56227
-0.465938,2.56262
-0.465812,2.56193
-0.465687,2.56193
-0.465562,2.56193
-0.465438,2.56159
-0.465312,2.56159
-0.465187,2.56091
-0.465062,2.56091
-0.464938,2.56125
-0.464812,2.56091
-0.464687,2.56056
-0.464562,2.56022
-0.464438,2.56056
-0.464312,2.55988
-0.464187,2.55988
-0.464062,2.56056
-0.463938,2.55988
-0.463812,2.56022
-0.463687,2.56091
-0.463562,2.56022
-0.463438,2.56091
-0.463312,2.56159
-0.463187,2.56091
-0.463062,2.56159
-0.462938,2.56125
-0.462812,2.56193
-0.462687,2.56227
-0.462562,2.56159
-0.462438,2.56193
-0.462312,2.56125
-0.462187,2.56125
-0.462062,2.56125
-0.461938,2.56159
-0.461812,2.56193
-0.461687,2.56159
-0.461562,2.56091
-0.461438,2.56193
-0.461312,2.56159
-0.461187,2.56125
-0.461062,2.56193
-0.460938,2.56193
-0.460812,2.56159
-0.460687,2.56193
-0.460562,2.56159
-0.460437,2.56227
-0.460312,2.56193
-0.460187,2.56125
-0.460062,2.56125
-0.459937,2.56125
-0.459812,2.56091
-0.459687,2.56091
-0.459562,2.56022
-0.459437,2.56056
-0.459312,2.56022
-0.459187,2.55988
-0.459062,2.56022
-0.458937,2.55988
-0.458812,2.55988
-0.458687,2.55988
-0.458562,2.55954
-0.458437,2.55988
-0.458312,2.55988
-0.458187,2.55988
-0.458062,2.56056
-0.457937,2.55988
-0.457812,2.55988
-0.457687,2.55988
-0.457562,2.5592
-0.457437,2.55954
-0.457312,2.5592
-0.457187,2.5592
-0.457062,2.5592
-0.456937,2.5592
-0.456812,2.55886
-0.456687,2.55851
-0.456562,2.55817
-0.456437,2.55886
-0.456312,2.55817
-0.456187,2.55886
-0.456062,2.5592
-0.455937,2.55886
-0.455812,2.5592
-0.455687,2.55851
-0.455562,2.55817
-0.455437,2.55851
-0.455312,2.55851
-0.455187,2.55886
-0.455062,2.55817
-0.454937,2.55851
-0.454812,2.55886
-0.454687,2.55851
-0.454562,2.55817
-0.454437,2.55817
-0.454312,2.55749
-0.454187,2.55749
-0.454062,2.55783
-0.453937,2.55715
-0.453812,2.55749
-0.453687,2.5568
-0.453562,2.55715
-0.453437,2.55715
-0.453312,2.55715
-0.453187,2.55715
-0.453062,2.5568
-0.452937,2.5568
-0.452813,2.5568
-0.452687,2.55646
-0.452562,2.55646
-0.452437,2.55646
-0.452313,2.55578
-0.452187,2.55578
-0.452062,2.5551
-0.451937,2.55475
-0.451813,2.55475
-0.451687,2.55407
-0.451562,2.55407
-0.451437,2.55373
-0.451313,2.55339
-0.451187,2.55339
-0.451062,2.55304
-0.450937,2.5527
-0.450813,2.55304
-0.450687,2.5527
-0.450562,2.5527
-0.450437,2.5527
-0.450313,2.55236
-0.450187,2.55304
-0.450062,2.5527
-0.449937,2.55202
-0.449813,2.55202
-0.449687,2.55168
-0.449562,2.55168
-0.449437,2.55202
-0.449313,2.55134
-0.449187,2.55168
-0.449062,2.55168
-0.448937,2.55134
-0.448813,2.55168
-0.448687,2.55134
-0.448562,2.55168
-0.448437,2.55202
-0.448313,2.55202
-0.448187,2.55168
-0.448062,2.55236
-0.447937,2.55202
-0.447813,2.55236
-0.447687,2.5527
-0.447562,2.5527
-0.447437,2.55339
-0.447313,2.55304
-0.447187,2.55339
-0.447062,2.55373
-0.446937,2.55304
-0.446813,2.55373
-0.446687,2.55339
-0.446562,2.55304
-0.446437,2.55339
-0.446313,2.5527
-0.446187,2.55304
-0.446062,2.55339
-0.445937,2.55304
-0.445813,2.55339
-0.445687,2.55339
-0.445562,2.55304
-0.445437,2.55339
-0.445312,2.55339
-0.445187,2.55339
-0.445062,2.55373
-0.444937,2.5527
-0.444812,2.55304
-0.444687,2.5527
-0.444562,2.5527
-0.444437,2.5527
-0.444312,2.55236
-0.444187,2.55236
-0.444062,2.55168
-0.443937,2.5527
-0.443812,2.55236
-0.443687,2.55202
-0.443562,2.55236
-0.443437,2.55202
-0.443312,2.55168
-0.443187,2.55202
-0.443062,2.55202
-0.442937,2.55202
-0.442812,2.55202
-0.442687,2.55236
-0.442562,2.55236
-0.442437,2.55202
-0.442312,2.55236
-0.442187,2.55236
-0.442062,2.55202
-0.441937,2.5527
-0.441812,2.5527
-0.441687,2.55304
-0.441562,2.55339
-0.441437,2.55304
-0.441312,2.55373
-0.441187,2.55339
-0.441062,2.55304
-0.440937,2.55407
-0.440812,2.55373
-0.440687,2.55407
-0.440562,2.55475
-0.440437,2.55441
-0.440312,2.55475
-0.440187,2.55475
-0.440062,2.5551
-0.439937,2.55544
-0.439812,2.5551
-0.439687,2.5551
-0.439562,2.55612
-0.439437,2.55578
-0.439312,2.55612
-0.439187,2.55612
-0.439062,2.55612
-0.438937,2.5568
-0.438812,2.55646
-0.438687,2.55646
-0.438562,2.5568
-0.438437,2.55612
-0.438312,2.55646
-0.438187,2.55715
-0.438062,2.5568
-0.437937,2.5568
-0.437812,2.5568
-0.437687,2.5568
-0.437562,2.5568
-0.437437,2.55646
-0.437312,2.5568
-0.437188,2.5568
-0.437062,2.55612
-0.436937,2.5568
-0.436812,2.55646
-0.436688,2.55578
-0.436562,2.55612
-0.436437,2.55578
-0.436312,2.55578
-0.436188,2.55578
-0.436062,2.55544
-0.435937,2.55544
-0.435812,2.55475
-0.435688,2.55475
-0.435562,2.55544
-0.435437,2.5551
-0.435312,2.5551
-0.435188,2.55544
-0.435062,2.55544
-0.434937,2.5551
-0.434812,2.55544
-0.434688,2.55475
-0.434562,2.55441
-0.434437,2.55475
-0.434312,2.55441
-0.434188,2.55475
-0.434062,2.55544
-0.433937,2.55441
-0.433812,2.55475
-0.433688,2.55441
-0.433562,2.55441
-0.433437,2.5551
-0.433312,2.55441
-0.433188,2.55441
-0.433062,2.55475
-0.432937,2.55441
-0.432812,2.55475
-0.432688,2.55475
-0.432562,2.55475
-0.432437,2.55475
-0.432312,2.55441
-0.432188,2.55441
-0.432062,2.55475
-0.431937,2.55441
-0.431812,2.55441
-0.431688,2.55475
-0.431562,2.55407
-0.431437,2.55339
-0.431312,2.55373
-0.431188,2.55339
-0.431062,2.55339
-0.430937,2.55339
-0.430812,2.55304
-0.430688,2.55373
-0.430562,2.55304
-0.430437,2.55304
-0.430312,2.55339
-0.430188,2.5527
-0.430062,2.5527
-0.429937,2.5527
-0.429812,2.5527
-0.429688,2.55304
-0.429562,2.55236
-0.429437,2.5527
-0.429312,2.55236
-0.429187,2.55236
-0.429062,2.5527
-0.428937,2.55236
-0.428812,2.55202
-0.428687,2.55236
-0.428562,2.55236
-0.428437,2.55202
-0.428312,2.55236
-0.428187,2.55236
-0.428062,2.5527
-0.427937,2.5527
-0.427812,2.55236
-0.427687,2.5527
-0.427562,2.5527
-0.427437,2.55304
-0.427312,2.55373
-0.427187,2.55304
-0.427062,2.55339
-0.426937,2.55373
-0.426812,2.55339
-0.426687,2.55407
-0.426562,2.55373
-0.426437,2.55407
-0.426312,2.55373
-0.426187,2.55373
-0.426062,2.55407
-0.425937,2.55441
-0.425812,2.55407
-0.425687,2.55441
-0.425562,2.55441
-0.425437,2.55441
-0.425312,2.55475
-0.425187,2.55475
-0.425062,2.55544
-0.424937,2.55475
-0.424812,2.55475
-0.424687,2.55578
-0.424562,2.5551
-0.424437,2.5551
-0.424312,2.5551
-0.424187,2.55475
-0.424062,2.5551
-0.423937,2.5551
-0.423812,2.55544
-0.423687,2.55544
-0.423562,2.5551
-0.423437,2.5551
-0.423312,2.55544
-0.423187,2.55441
-0.423062,2.55475
-0.422937,2.5551
-0.422812,2.55441
-0.422687,2.55475
-0.422562,2.55475
-0.422437,2.55475
-0.422312,2.55475
-0.422187,2.55441
-0.422062,2.55441
-0.421937,2.55475
-0.421812,2.55441
-0.421687,2.55441
-0.421563,2.55441
-0.421437,2.55441
-0.421312,2.55441
-0.421187,2.55407
-0.421063,2.55373
-0.420937,2.55339
-0.420812,2.5527
-0.420687,2.5527
-0.420563,2.55304
-0.420437,2.55236
-0.420312,2.55236
-0.420187,2.55202
-0.420063,2.55168
-0.419937,2.55134
-0.419812,2.55099
-0.419687,2.55031
-0.419563,2.55099
-0.419437,2.55031
-0.419312,2.54997
-0.419187,2.54963
-0.419063,2.54894
-0.418937,2.5486
-0.418812,2.5486
-0.418687,2.54894
-0.418563,2.54963
-0.418437,2.54894
-0.418312,2.5486
-0.418187,2.54894
-0.418063,2.54826
-0.417937,2.54826
-0.417812,2.54826
-0.417687,2.54792
-0.417563,2.54792
-0.417437,2.54826
-0.417312,2.54792
-0.417187,2.54826
-0.417063,2.54826
-0.416937,2.54826
-0.416812,2.5486
-0.416687,2.5486
-0.416563,2.54826
-0.416437,2.5486
-0.416312,2.54894
-0.416187,2.54929
-0.416063,2.54929
-0.415937,2.54929
-0.415812,2.54963
-0.415687,2.54894
-0.415563,2.54894
-0.415437,2.54997
-0.415312,2.54963
-0.415187,2.55031
-0.415063,2.55065
-0.414937,2.55099
-0.414812,2.55134
-0.414687,2.55134
-0.414563,2.55134
-0.414437,2.55168
-0.414312,2.55168
-0.414187,2.55236
-0.414062,2.55202
-0.413937,2.55202
-0.413812,2.5527
-0.413687,2.5527
-0.413562,2.5527
-0.413437,2.55339
-0.413312,2.55373
-0.413187,2.55373
-0.413062,2.55441
-0.412937,2.55441
-0.412812,2.55475
-0.412687,2.55544
-0.412562,2.5551
-0.412437,2.55544
-0.412312,2.5551
-0.412187,2.55544
-0.412062,2.55578
-0.411937,2.55612
-0.411812,2.55646
-0.411687,2.55646
-0.411562,2.5568
-0.411437,2.55715
-0.411312,2.5568
-0.411187,2.55749
-0.411062,2.55749
-0.410937,2.55749
-0.410812,2.55817
-0.410687,2.55783
-0.410562,2.55749
-0.410437,2.55817
-0.410312,2.55817
-0.410187,2.55851
-0.410062,2.55851
-0.409937,2.55817
-0.409812,2.5592
-0.409687,2.55954
-0.409562,2.5592
-0.409437,2.5592
-0.409312,2.55954
-0.409187,2.55988
-0.409062,2.56022
-0.408937,2.55954
-0.408812,2.56022
-0.408687,2.56022
-0.408562,2.56022
-0.408437,2.56125
-0.408312,2.56091
-0.408187,2.56091
-0.408062,2.56125
-0.407937,2.56091
-0.407812,2.56125
-0.407687,2.56159
-0.407562,2.56159
-0.407437,2.56159
-0.407312,2.56125
-0.407187,2.56159
-0.407062,2.56227
-0.406937,2.56159
-0.406812,2.56159
-0.406687,2.56227
-0.406562,2.56227
-0.406437,2.56227
-0.406312,2.56227
-0.406187,2.56227
-0.406062,2.56262
-0.405938,2.56296
-0.405812,2.56262
-0.405687,2.56296
-0.405562,2.56262
-0.405438,2.56262
-0.405312,2.56296
-0.405187,2.56262
-0.405062,2.56296
-0.404938,2.56296
-0.404812,2.56296
-0.404687,2.56398
-0.404562,2.5633
-0.404438,2.56364
-0.404312,2.56432
-0.404187,2.56432
-0.404062,2.56432
-0.403938,2.56432
-0.403812,2.56398
-0.403687,2.56467
-0.403562,2.56467
-0.403438,2.56398
-0.403312,2.56501
-0.403187,2.56501
-0.403062,2.56501
-0.402938,2.56467
-0.402812,2.56501
-0.402687,2.56535
-0.402562,2.56535
-0.402438,2.56569
-0.402312,2.56603
-0.402187,2.56603
-0.402062,2.56672
-0.401938,2.56706
-0.401812,2.56672
-0.401687,2.5674
-0.401562,2.56774
-0.401438,2.56774
-0.401312,2.56808
-0.401187,2.56774
-0.401062,2.56774
-0.400938,2.56843
-0.400812,2.56843
-0.400687,2.56945
-0.400562,2.56911
-0.400438,2.56911
-0.400312,2.56979
-0.400187,2.56945
-0.400062,2.56979
-0.399938,2.57013
-0.399812,2.57048
-0.399687,2.57082
-0.399562,2.57013
-0.399438,2.57082
-0.399312,2.57116
-0.399187,2.57082
-0.399062,2.57116
-0.398938,2.57048
-0.398812,2.57116
-0.398687,2.57116
-0.398562,2.57082
-0.398438,2.57082
-0.398312,2.5715
-0.398187,2.5715
-0.398062,2.57184
-0.397937,2.5715
-0.397812,2.57184
-0.397687,2.57219
-0.397562,2.57219
-0.397437,2.57219
-0.397312,2.57219
-0.397187,2.57184
-0.397062,2.57219
-0.396937,2.57184
-0.396812,2.57184
-0.396687,2.57219
-0.396562,2.57219
-0.396437,2.57184
-0.396312,2.57253
-0.396187,2.57184
-0.396062,2.57219
-0.395937,2.57219
-0.395812,2.57184
-0.395687,2.57219
-0.395562,2.5715
-0.395437,2.5715
-0.395312,2.57219
-0.395187,2.57184
-0.395062,2.57219
-0.394937,2.57219
-0.394812,2.5715
-0.394687,2.57219
-0.394562,2.57184
-0.394437,2.5715
-0.394312,2.57184
-0.394187,2.57184
-0.394062,2.57219
-0.393937,2.57219
-0.393812,2.57184
-0.393687,2.57219
-0.393562,2.57184
-0.393437,2.57116
-0.393312,2.5715
-0.393187,2.57116
-0.393062,2.5715
-0.392937,2.57184
-0.392812,2.5715
-0.392687,2.57184
-0.392562,2.57184
-0.392437,2.5715
-0.392312,2.57184
-0.392187,2.5715
-0.392062,2.57184
-0.391937,2.57184
-0.391812,2.5715
-0.391687,2.5715
-0.391562,2.57219
-0.391437,2.57184
-0.391312,2.57184
-0.391187,2.57219
-0.391062,2.5715
-0.390937,2.57219
-0.390812,2.57184
-0.390687,2.57184
-0.390562,2.57253
-0.390437,2.57219
-0.390313,2.57219
-0.390187,2.57253
-0.390062,2.57184
-0.389937,2.57253
-0.389813,2.57219
-0.389687,2.57184
-0.389562,2.57253
-0.389437,2.57253
-0.389313,2.57219
-0.389187,2.57253
-0.389062,2.57219
-0.388937,2.57219
-0.388813,2.57253
-0.388687,2.57219
-0.388562,2.57219
-0.388437,2.57253
-0.388313,2.57219
-0.388187,2.57253
-0.388062,2.57253
-0.387937,2.57287
-0.387813,2.57321
-0.387687,2.57253
-0.387562,2.57321
-0.387437,2.57355
-0.387313,2.57321
-0.387187,2.57355
-0.387062,2.57389
-0.386937,2.57355
-0.386813,2.57389
-0.386687,2.57355
-0.386562,2.57355
-0.386437,2.57424
-0.386313,2.57389
-0.386187,2.57424
-0.386062,2.57424
-0.385937,2.57424
-0.385813,2.57458
-0.385687,2.57424
-0.385562,2.57424
-0.385437,2.57424
-0.385313,2.57389
-0.385187,2.57424
-0.385062,2.57424
-0.384937,2.57355
-0.384813,2.57458
-0.384687,2.57458
-0.384562,2.57458
-0.384437,2.57526
-0.384313,2.57492
-0.384187,2.57492
-0.384062,2.57526
-0.383937,2.5756
-0.383813,2.5756
-0.383687,2.57595
-0.383562,2.57595
-0.383437,2.57629
-0.383313,2.57595
-0.383187,2.57595
-0.383062,2.57629
-0.382937,2.57595
-0.382812,2.57595
-0.382687,2.57663
-0.382562,2.57663
-0.382437,2.57663
-0.382312,2.57663
-0.382187,2.57595
-0.382062,2.57663
-0.381937,2.57663
-0.381812,2.57663
-0.381687,2.57663
-0.381562,2.57663
-0.381437,2.57697
-0.381312,2.57697
-0.381187,2.57629
-0.381062,2.57663
-0.380937,2.57731
-0.380812,2.57663
-0.380687,2.57697
-0.380562,2.57697
-0.380437,2.57697
-0.380312,2.57765
-0.380187,2.57731
-0.380062,2.57663
-0.379937,2.57663
-0.379812,2.57663
-0.379687,2.57629
-0.379562,2.57663
-0.379437,2.57629
-0.379312,2.57697
-0.379187,2.57765
-0.379062,2.57731
-0.378937,2.57765
-0.378812,2.578
-0.378687,2.57731
-0.378562,2.57765
-0.378437,2.57731
-0.378312,2.57765
-0.378187,2.578
-0.378062,2.57697
-0.377937,2.57731
-0.377812,2.57731
-0.377687,2.57731
-0.377562,2.57731
-0.377437,2.57697
-0.377312,2.57697
-0.377187,2.57731
-0.377062,2.57697
-0.376937,2.57697
-0.376812,2.57663
-0.376687,2.57663
-0.376562,2.57629
-0.376437,2.57629
-0.376312,2.57595
-0.376187,2.57629
-0.376062,2.57526
-0.375937,2.5756
-0.375812,2.57595
-0.375687,2.5756
-0.375562,2.5756
-0.375437,2.5756
-0.375312,2.57492
-0.375187,2.57492
-0.375062,2.57492
